<?xml version="1.0" encoding="UTF-8" standalone="no"?>
<!-- Created with Inkscape (http://www.inkscape.org/) -->

<svg
   xmlns:dc="http://purl.org/dc/elements/1.1/"
   xmlns:cc="http://creativecommons.org/ns#"
   xmlns:rdf="http://www.w3.org/1999/02/22-rdf-syntax-ns#"
   xmlns:svg="http://www.w3.org/2000/svg"
   xmlns="http://www.w3.org/2000/svg"
   xmlns:sodipodi="http://sodipodi.sourceforge.net/DTD/sodipodi-0.dtd"
   xmlns:inkscape="http://www.inkscape.org/namespaces/inkscape"
   width="101.39039mm"
   height="49.207916mm"
   viewBox="0 0 101.39039 49.207916"
   version="1.1"
   id="svg8"
   inkscape:version="0.92.3 (2405546, 2018-03-11)"
   sodipodi:docname="consistent_hashing.svg">
  <defs
     id="defs2">
    <marker
       inkscape:stockid="Arrow2Lend"
       orient="auto"
       refY="0"
       refX="0"
       id="Arrow2Lend"
       style="overflow:visible"
       inkscape:isstock="true">
      <path
         id="path1143"
         style="fill:#4e4e4e;fill-opacity:1;fill-rule:evenodd;stroke:#4e4e4e;stroke-width:0.625;stroke-linejoin:round;stroke-opacity:1"
         d="M 8.7185878,4.0337352 -2.2072895,0.01601326 8.7185884,-4.0017078 c -1.7454984,2.3720609 -1.7354408,5.6174519 -6e-7,8.035443 z"
         transform="matrix(-1.1,0,0,-1.1,-1.1,0)"
         inkscape:connector-curvature="0" />
    </marker>
    <marker
       inkscape:stockid="Arrow1Mend"
       orient="auto"
       refY="0"
       refX="0"
       id="Arrow1Mend"
       style="overflow:visible"
       inkscape:isstock="true">
      <path
         id="path826"
         d="M 0,0 5,-5 -12.5,0 5,5 Z"
         style="fill:#000000;fill-opacity:1;fill-rule:evenodd;stroke:#000000;stroke-width:1.00000003pt;stroke-opacity:1"
         transform="matrix(-0.4,0,0,-0.4,-4,0)"
         inkscape:connector-curvature="0" />
    </marker>
    <marker
       inkscape:stockid="Arrow1Lend"
       orient="auto"
       refY="0"
       refX="0"
       id="Arrow1Lend"
       style="overflow:visible"
       inkscape:isstock="true">
      <path
         id="path820"
         d="M 0,0 5,-5 -12.5,0 5,5 Z"
         style="fill:#000000;fill-opacity:1;fill-rule:evenodd;stroke:#000000;stroke-width:1.00000003pt;stroke-opacity:1"
         transform="matrix(-0.8,0,0,-0.8,-10,0)"
         inkscape:connector-curvature="0" />
    </marker>
    <marker
       inkscape:stockid="Arrow1Sstart"
       orient="auto"
       refY="0"
       refX="0"
       id="Arrow1Sstart"
       style="overflow:visible"
       inkscape:isstock="true">
      <path
         id="path829"
         d="M 0,0 5,-5 -12.5,0 5,5 Z"
         style="fill:#000000;fill-opacity:1;fill-rule:evenodd;stroke:#000000;stroke-width:1.00000003pt;stroke-opacity:1"
         transform="matrix(0.2,0,0,0.2,1.2,0)"
         inkscape:connector-curvature="0" />
    </marker>
    <marker
       inkscape:stockid="StopL"
       orient="auto"
       refY="0"
       refX="0"
       id="StopL"
       style="overflow:visible"
       inkscape:isstock="true">
      <path
         id="path986"
         d="M 0,5.65 V -5.65"
         style="fill:none;fill-opacity:0.75;fill-rule:evenodd;stroke:#00ff00;stroke-width:1.00000003pt;stroke-opacity:1"
         transform="scale(0.8)"
         inkscape:connector-curvature="0" />
    </marker>
    <marker
       inkscape:stockid="StopL"
       orient="auto"
       refY="0"
       refX="0"
       id="StopL-3"
       style="overflow:visible"
       inkscape:isstock="true">
      <path
         inkscape:connector-curvature="0"
         id="path986-6"
         d="M 0,5.65 V -5.65"
         style="fill:none;fill-opacity:0.75;fill-rule:evenodd;stroke:#fb6e12;stroke-width:1.00000003pt;stroke-opacity:1"
         transform="scale(0.8)" />
    </marker>
    <marker
       inkscape:stockid="StopL"
       orient="auto"
       refY="0"
       refX="0"
       id="marker3695"
       style="overflow:visible"
       inkscape:isstock="true">
      <path
         inkscape:connector-curvature="0"
         id="path3693"
         d="M 0,5.65 V -5.65"
         style="fill:none;fill-opacity:0.75;fill-rule:evenodd;stroke:#00ff00;stroke-width:1.00000003pt;stroke-opacity:1"
         transform="scale(0.8)" />
    </marker>
    <marker
       inkscape:stockid="StopL"
       orient="auto"
       refY="0"
       refX="0"
       id="StopL-3-5"
       style="overflow:visible"
       inkscape:isstock="true">
      <path
         inkscape:connector-curvature="0"
         id="path986-6-3"
         d="M 0,5.65 V -5.65"
         style="fill:none;fill-opacity:0.75;fill-rule:evenodd;stroke:#fb6e12;stroke-width:1.00000003pt;stroke-opacity:1"
         transform="scale(0.8)" />
    </marker>
    <marker
       inkscape:stockid="StopL"
       orient="auto"
       refY="0"
       refX="0"
       id="marker7430"
       style="overflow:visible"
       inkscape:isstock="true">
      <path
         inkscape:connector-curvature="0"
         id="path7428"
         d="M 0,5.65 V -5.65"
         style="fill:none;fill-opacity:0.75;fill-rule:evenodd;stroke:#ee9113;stroke-width:1.00000003pt;stroke-opacity:1"
         transform="scale(0.8)" />
    </marker>
    <marker
       inkscape:stockid="StopL"
       orient="auto"
       refY="0"
       refX="0"
       id="StopL-5"
       style="overflow:visible"
       inkscape:isstock="true">
      <path
         inkscape:connector-curvature="0"
         id="path986-62"
         d="M 0,5.65 V -5.65"
         style="fill:none;fill-opacity:0.75;fill-rule:evenodd;stroke:#00ff00;stroke-width:1.00000003pt;stroke-opacity:1"
         transform="scale(0.8)" />
    </marker>
    <marker
       inkscape:stockid="StopL"
       orient="auto"
       refY="0"
       refX="0"
       id="marker7436"
       style="overflow:visible"
       inkscape:isstock="true">
      <path
         inkscape:connector-curvature="0"
         id="path7434"
         d="M 0,5.65 V -5.65"
         style="fill:none;fill-opacity:0.75;fill-rule:evenodd;stroke:#00ff00;stroke-width:1.00000003pt;stroke-opacity:1"
         transform="scale(0.8)" />
    </marker>
    <marker
       inkscape:stockid="StopL"
       orient="auto"
       refY="0"
       refX="0"
       id="StopL-5-7"
       style="overflow:visible"
       inkscape:isstock="true">
      <path
         inkscape:connector-curvature="0"
         id="path986-62-0"
         d="M 0,5.65 V -5.65"
         style="fill:none;fill-opacity:0.75;fill-rule:evenodd;stroke:#bc1207;stroke-width:1.00000003pt;stroke-opacity:1"
         transform="scale(0.8)" />
    </marker>
    <marker
       inkscape:stockid="StopL"
       orient="auto"
       refY="0"
       refX="0"
       id="marker8047"
       style="overflow:visible"
       inkscape:isstock="true">
      <path
         inkscape:connector-curvature="0"
         id="path8045"
         d="M 0,5.65 V -5.65"
         style="fill:none;fill-opacity:0.75;fill-rule:evenodd;stroke:#00ff00;stroke-width:1.00000003pt;stroke-opacity:1"
         transform="scale(0.8)" />
    </marker>
    <marker
       inkscape:stockid="StopL"
       orient="auto"
       refY="0"
       refX="0"
       id="StopL-5-7-3"
       style="overflow:visible"
       inkscape:isstock="true">
      <path
         inkscape:connector-curvature="0"
         id="path986-62-0-6"
         d="M 0,5.65 V -5.65"
         style="fill:none;fill-opacity:0.75;fill-rule:evenodd;stroke:#bc1207;stroke-width:1.00000003pt;stroke-opacity:1"
         transform="scale(0.8)" />
    </marker>
    <marker
       inkscape:stockid="StopL"
       orient="auto"
       refY="0"
       refX="0"
       id="marker11420"
       style="overflow:visible"
       inkscape:isstock="true">
      <path
         inkscape:connector-curvature="0"
         id="path11418"
         d="M 0,5.65 V -5.65"
         style="fill:none;fill-opacity:0.75;fill-rule:evenodd;stroke:#bc1207;stroke-width:1.00000003pt;stroke-opacity:1"
         transform="scale(0.8)" />
    </marker>
    <marker
       inkscape:stockid="StopL"
       orient="auto"
       refY="0"
       refX="0"
       id="StopL-3-5-0"
       style="overflow:visible"
       inkscape:isstock="true">
      <path
         inkscape:connector-curvature="0"
         id="path986-6-3-6"
         d="M 0,5.65 V -5.65"
         style="fill:none;fill-opacity:0.75;fill-rule:evenodd;stroke:#fb6e12;stroke-width:1.00000003pt;stroke-opacity:1"
         transform="scale(0.8)" />
    </marker>
    <marker
       inkscape:stockid="StopL"
       orient="auto"
       refY="0"
       refX="0"
       id="marker11426"
       style="overflow:visible"
       inkscape:isstock="true">
      <path
         inkscape:connector-curvature="0"
         id="path11424"
         d="M 0,5.65 V -5.65"
         style="fill:none;fill-opacity:0.75;fill-rule:evenodd;stroke:#ee9113;stroke-width:1.00000003pt;stroke-opacity:1"
         transform="scale(0.8)" />
    </marker>
    <marker
       inkscape:stockid="StopL"
       orient="auto"
       refY="0"
       refX="0"
       id="StopL-5-2"
       style="overflow:visible"
       inkscape:isstock="true">
      <path
         inkscape:connector-curvature="0"
         id="path986-62-6"
         d="M 0,5.65 V -5.65"
         style="fill:none;fill-opacity:0.75;fill-rule:evenodd;stroke:#00b300;stroke-width:1.00000003pt;stroke-opacity:1"
         transform="scale(0.8)" />
    </marker>
    <marker
       inkscape:stockid="StopL"
       orient="auto"
       refY="0"
       refX="0"
       id="marker11432"
       style="overflow:visible"
       inkscape:isstock="true">
      <path
         inkscape:connector-curvature="0"
         id="path11430"
         d="M 0,5.65 V -5.65"
         style="fill:none;fill-opacity:0.75;fill-rule:evenodd;stroke:#00ff00;stroke-width:1.00000003pt;stroke-opacity:1"
         transform="scale(0.8)" />
    </marker>
    <marker
       inkscape:stockid="Arrow2Lend"
       orient="auto"
       refY="0"
       refX="0"
       id="Arrow2Lend-5"
       style="overflow:visible"
       inkscape:isstock="true">
      <path
         inkscape:connector-curvature="0"
         id="path1143-3"
         style="fill:#4e4e4e;fill-opacity:1;fill-rule:evenodd;stroke:#4e4e4e;stroke-width:0.625;stroke-linejoin:round;stroke-opacity:1"
         d="M 8.7185878,4.0337352 -2.2072895,0.01601326 8.7185884,-4.0017078 c -1.7454984,2.3720609 -1.7354408,5.6174519 -6e-7,8.035443 z"
         transform="matrix(-1.1,0,0,-1.1,-1.1,0)" />
    </marker>
  </defs>
  <sodipodi:namedview
     id="base"
     pagecolor="#ffffff"
     bordercolor="#666666"
     borderopacity="1.0"
     inkscape:pageopacity="0.0"
     inkscape:pageshadow="2"
     inkscape:zoom="1.979899"
     inkscape:cx="143.09167"
     inkscape:cy="98.357638"
     inkscape:document-units="mm"
     inkscape:current-layer="g15323"
     showgrid="false"
     inkscape:window-width="1920"
     inkscape:window-height="1053"
     inkscape:window-x="0"
     inkscape:window-y="27"
     inkscape:window-maximized="1" />
  <metadata
     id="metadata5">
    <rdf:RDF>
      <cc:Work
         rdf:about="">
        <dc:format>image/svg+xml</dc:format>
        <dc:type
           rdf:resource="http://purl.org/dc/dcmitype/StillImage" />
        <dc:title />
      </cc:Work>
    </rdf:RDF>
  </metadata>
  <g
     inkscape:label="Layer 1"
     inkscape:groupmode="layer"
     id="layer1"
     transform="translate(-57.216501,-22.070686)">
    <g
       id="g15323"
       transform="rotate(120,136.44442,15.854967)">
      <path
         sodipodi:open="true"
         d="m 196.78424,25.15598 a 18.992001,18.992001 0 0 1 -7.08864,14.696883 18.992001,18.992001 0 0 1 -15.87488,3.772976"
         sodipodi:end="1.7814811"
         sodipodi:start="0.0053806313"
         sodipodi:ry="18.992001"
         sodipodi:rx="18.992001"
         sodipodi:cy="25.053791"
         sodipodi:cx="177.79251"
         sodipodi:type="arc"
         id="path815-9-1"
         style="opacity:1;fill:none;fill-opacity:1;stroke:#00b300;stroke-width:0.67799997;stroke-miterlimit:4;stroke-dasharray:none;stroke-opacity:1;marker-start:url(#StopL-5-2);marker-end:url(#StopL-5-2)" />
      <circle
         r="23.246"
         cy="24.668156"
         cx="177.45982"
         id="path3621-1-8"
         style="opacity:1;fill:none;fill-opacity:1;stroke:#000000;stroke-width:0.36500001;stroke-miterlimit:4;stroke-dasharray:none;stroke-opacity:1" />
      <path
         transform="scale(-1)"
         sodipodi:open="true"
         d="m -159.45125,-18.898664 a 18.992001,18.992001 0 0 1 -20.64329,13.2894028 18.992001,18.992001 0 0 1 -16.5034,-18.1766718"
         sodipodi:end="3.1071999"
         sodipodi:start="0.29602351"
         sodipodi:ry="18.992001"
         sodipodi:rx="18.992001"
         sodipodi:cy="-24.438992"
         sodipodi:cx="-177.61717"
         sodipodi:type="arc"
         id="path815-7-2-7"
         style="opacity:1;fill:none;fill-opacity:1;stroke:#fb6e12;stroke-width:0.67799997;stroke-miterlimit:4;stroke-dasharray:none;stroke-opacity:1;marker-start:url(#StopL-3-5-0);marker-end:url(#StopL-3-5-0)" />
      <path
         transform="rotate(103.29841)"
         sodipodi:open="true"
         d="m 2.5111539,-177.91243 a 18.992001,18.992001 0 0 1 -5.7929645,13.5539 18.992001,18.992001 0 0 1 -13.7432894,5.3281"
         sodipodi:end="1.5994717"
         sodipodi:start="0.0053806313"
         sodipodi:ry="18.992001"
         sodipodi:rx="18.992001"
         sodipodi:cy="-178.01462"
         sodipodi:cx="-16.480572"
         sodipodi:type="arc"
         id="path815-9-9-9"
         style="opacity:1;fill:none;fill-opacity:1;stroke:#bc1207;stroke-width:0.67799997;stroke-miterlimit:4;stroke-dasharray:none;stroke-opacity:1;marker-start:url(#StopL-5-7-3);marker-end:url(#StopL-5-7-3)" />
    </g>
    <text
       xml:space="preserve"
       style="font-style:normal;font-weight:normal;font-size:10.58333302px;line-height:1.25;font-family:sans-serif;letter-spacing:0px;word-spacing:0px;fill:#00b300;fill-opacity:1;stroke:none;stroke-width:0.26458332;"
       x="90.764793"
       y="47.749676"
       id="text906"><tspan
         sodipodi:role="line"
         id="tspan904"
         x="90.764793"
         y="47.749676"
         style="font-style:italic;font-variant:normal;font-weight:normal;font-stretch:normal;font-size:4.23333311px;font-family:'TeX Gyre Adventor';-inkscape-font-specification:'TeX Gyre Adventor Italic';fill:#00b300;fill-opacity:1;stroke-width:0.26458332;">q=1</tspan></text>
    <text
       xml:space="preserve"
       style="font-style:normal;font-weight:normal;font-size:10.58333302px;line-height:1.25;font-family:sans-serif;letter-spacing:0px;word-spacing:0px;fill:#bc1207;fill-opacity:1;stroke:none;stroke-width:0.26458332"
       x="104.01702"
       y="32.778374"
       id="text906-9"><tspan
         sodipodi:role="line"
         id="tspan904-6"
         x="104.01702"
         y="32.778374"
         style="font-style:italic;font-variant:normal;font-weight:normal;font-stretch:normal;font-size:4.23333311px;font-family:'TeX Gyre Adventor';-inkscape-font-specification:'TeX Gyre Adventor Italic';fill:#bc1207;fill-opacity:1;stroke-width:0.26458332">q=2</tspan></text>
    <text
       xml:space="preserve"
       style="font-style:normal;font-weight:normal;font-size:10.58333302px;line-height:1.25;font-family:sans-serif;letter-spacing:0px;word-spacing:0px;fill:#fb6e12;fill-opacity:1;stroke:none;stroke-width:0.26458332"
       x="115.5453"
       y="55.740429"
       id="text906-0"><tspan
         sodipodi:role="line"
         id="tspan904-4"
         x="115.5453"
         y="55.740429"
         style="font-style:italic;font-variant:normal;font-weight:normal;font-stretch:normal;font-size:4.23333311px;font-family:'TeX Gyre Adventor';-inkscape-font-specification:'TeX Gyre Adventor Italic';fill:#fb6e12;fill-opacity:1;stroke-width:0.26458332">q=3</tspan></text>
    <circle
       style="opacity:1;fill:#00b300;fill-opacity:1;stroke:none;stroke-width:0.18778922;stroke-linecap:square;stroke-miterlimit:4;stroke-dasharray:none;stroke-opacity:1;paint-order:markers fill stroke"
       id="path934"
       cx="91.650124"
       cy="63.167786"
       r="1.6462392" />
    <circle
       style="opacity:1;fill:#00b300;fill-opacity:1;stroke:none;stroke-width:0.18778922;stroke-linecap:square;stroke-miterlimit:4;stroke-dasharray:none;stroke-opacity:1;paint-order:markers fill stroke"
       id="path934-1"
       cx="85.887123"
       cy="52.994839"
       r="1.6462392" />
    <circle
       style="opacity:1;fill:#00b300;fill-opacity:1;stroke:none;stroke-width:0.18778922;stroke-linecap:square;stroke-miterlimit:4;stroke-dasharray:none;stroke-opacity:1;paint-order:markers fill stroke"
       id="path934-1-0"
       cx="86.164185"
       cy="39.943851"
       r="1.6462392" />
    <circle
       style="opacity:1;fill:#bc1207;fill-opacity:1;stroke:none;stroke-width:0.18778922;stroke-linecap:square;stroke-miterlimit:4;stroke-dasharray:none;stroke-opacity:1;paint-order:markers fill stroke"
       id="path934-1-0-4"
       cx="98.448792"
       cy="26.000618"
       r="1.6462392" />
    <circle
       style="opacity:1;fill:#bc1207;fill-opacity:1;stroke:none;stroke-width:0.18778922;stroke-linecap:square;stroke-miterlimit:4;stroke-dasharray:none;stroke-opacity:1;paint-order:markers fill stroke"
       id="path934-1-0-4-8"
       cx="113.31567"
       cy="24.391279"
       r="1.6462392" />
    <circle
       style="opacity:1;fill:#fb6e12;fill-opacity:1;stroke:none;stroke-width:0.18778922;stroke-linecap:square;stroke-miterlimit:4;stroke-dasharray:none;stroke-opacity:1;paint-order:markers fill stroke"
       id="path934-1-0-4-8-7"
       cx="129.85297"
       cy="37.894112"
       r="1.6462392" />
    <circle
       style="opacity:1;fill:#fb6e12;fill-opacity:1;stroke:none;stroke-width:0.18778922;stroke-linecap:square;stroke-miterlimit:4;stroke-dasharray:none;stroke-opacity:1;paint-order:markers fill stroke"
       id="path934-1-0-4-8-7-0"
       cx="131.52339"
       cy="49.019207"
       r="1.6462392" />
    <circle
       style="opacity:1;fill:#fb6e12;fill-opacity:1;stroke:none;stroke-width:0.18778922;stroke-linecap:square;stroke-miterlimit:4;stroke-dasharray:none;stroke-opacity:1;paint-order:markers fill stroke"
       id="path934-1-0-4-8-7-8"
       cx="127.91525"
       cy="59.743393"
       r="1.6462392" />
    <circle
       style="opacity:1;fill:#fb6e12;fill-opacity:1;stroke:none;stroke-width:0.18778922;stroke-linecap:square;stroke-miterlimit:4;stroke-dasharray:none;stroke-opacity:1;paint-order:markers fill stroke"
       id="path934-1-0-4-8-7-6"
       cx="118.95969"
       cy="67.704453"
       r="1.6462392" />
    <circle
       style="opacity:1;fill:#fb6e12;fill-opacity:1;stroke:none;stroke-width:0.18778922;stroke-linecap:square;stroke-miterlimit:4;stroke-dasharray:none;stroke-opacity:1;paint-order:markers fill stroke"
       id="path934-1-0-4-8-7-2"
       cx="103.29305"
       cy="69.632362"
       r="1.6462392" />
    <text
       xml:space="preserve"
       style="font-style:normal;font-weight:normal;font-size:10.58333302px;line-height:1.25;font-family:sans-serif;letter-spacing:0px;word-spacing:0px;fill:#bc1207;fill-opacity:1;stroke:none;stroke-width:0.26458332"
       x="70.037117"
       y="25.19912"
       id="text906-9-7"><tspan
         sodipodi:role="line"
         id="tspan904-6-9"
         x="70.037117"
         y="25.19912"
         style="font-style:italic;font-variant:normal;font-weight:normal;font-stretch:normal;font-size:4.23333311px;font-family:'TeX Gyre Adventor';-inkscape-font-specification:'TeX Gyre Adventor Italic';fill:#bc1207;fill-opacity:1;stroke-width:0.26458332">h(k<tspan
   style="font-size:64.99999762%;baseline-shift:sub"
   id="tspan1072">1</tspan>) = {k<tspan
   style="font-size:64.99999762%;baseline-shift:sub"
   id="tspan1070">1</tspan>,v<tspan
   style="font-size:64.99999762%;baseline-shift:sub"
   id="tspan1068">1</tspan>}</tspan></text>
    <text
       xml:space="preserve"
       style="font-style:normal;font-weight:normal;font-size:10.58333302px;line-height:1.25;font-family:sans-serif;letter-spacing:0px;word-spacing:0px;fill:#fb6e12;fill-opacity:1;stroke:none;stroke-width:0.26458332"
       x="132.89806"
       y="39.268852"
       id="text906-9-7-3"><tspan
         sodipodi:role="line"
         id="tspan904-6-9-9"
         x="132.89806"
         y="39.268852"
         style="font-style:italic;font-variant:normal;font-weight:normal;font-stretch:normal;font-size:4.23333311px;font-family:'TeX Gyre Adventor';-inkscape-font-specification:'TeX Gyre Adventor Italic';fill:#fb6e12;fill-opacity:1;stroke-width:0.26458332">h(k<tspan
   style="font-size:64.99999762%;baseline-shift:sub;fill:#fb6e12;fill-opacity:1"
   id="tspan1105">2</tspan>) = {k<tspan
   style="font-size:64.99999762%;baseline-shift:sub;fill:#fb6e12;fill-opacity:1"
   id="tspan1103">2</tspan>,v<tspan
   style="font-size:64.99999762%;baseline-shift:sub;fill:#fb6e12;fill-opacity:1"
   id="tspan1101">2</tspan>}</tspan></text>
    <text
       xml:space="preserve"
       style="font-style:normal;font-weight:normal;font-size:10.58333302px;line-height:1.25;font-family:sans-serif;letter-spacing:0px;word-spacing:0px;fill:#fb6e12;fill-opacity:1;stroke:none;stroke-width:0.26458332"
       x="121.85861"
       y="69.630333"
       id="text906-9-7-3-0"><tspan
         sodipodi:role="line"
         id="tspan904-6-9-9-1"
         x="121.85861"
         y="69.630333"
         style="font-style:italic;font-variant:normal;font-weight:normal;font-stretch:normal;font-size:4.23333311px;font-family:'TeX Gyre Adventor';-inkscape-font-specification:'TeX Gyre Adventor Italic';fill:#fb6e12;fill-opacity:1;stroke-width:0.26458332">h(k<tspan
   style="font-size:64.99999762%;baseline-shift:sub"
   id="tspan1138">3</tspan>) = {k<tspan
   style="font-size:64.99999762%;baseline-shift:sub"
   id="tspan1136">3</tspan>,v<tspan
   style="font-size:64.99999762%;baseline-shift:sub"
   id="tspan1134">3</tspan>}</tspan></text>
    <text
       xml:space="preserve"
       style="font-style:normal;font-weight:normal;font-size:10.58333302px;line-height:1.25;font-family:sans-serif;letter-spacing:0px;word-spacing:0px;fill:#00b300;fill-opacity:1;stroke:none;stroke-width:0.26458332;"
       x="57.076801"
       y="54.294914"
       id="text906-9-7-3-0-1"><tspan
         sodipodi:role="line"
         id="tspan904-6-9-9-1-5"
         x="57.076801"
         y="54.294914"
         style="font-style:italic;font-variant:normal;font-weight:normal;font-stretch:normal;font-size:4.23333311px;font-family:'TeX Gyre Adventor';-inkscape-font-specification:'TeX Gyre Adventor Italic';fill:#00b300;fill-opacity:1;stroke-width:0.26458332;">h(k<tspan
   style="font-size:64.99999762%;baseline-shift:sub;fill:#00b300;fill-opacity:1;"
   id="tspan1171">4</tspan>) = {k<tspan
   style="font-size:64.99999762%;baseline-shift:sub;fill:#00b300;fill-opacity:1;"
   id="tspan1169">4</tspan>,v<tspan
   style="font-size:64.99999762%;baseline-shift:sub;fill:#00b300;fill-opacity:1;"
   id="tspan1167">4</tspan>}</tspan></text>
  </g>
</svg>
