<?xml version="1.0" encoding="UTF-8" standalone="no"?>
<!-- Created with Inkscape (http://www.inkscape.org/) -->

<svg
   xmlns:dc="http://purl.org/dc/elements/1.1/"
   xmlns:cc="http://creativecommons.org/ns#"
   xmlns:rdf="http://www.w3.org/1999/02/22-rdf-syntax-ns#"
   xmlns:svg="http://www.w3.org/2000/svg"
   xmlns="http://www.w3.org/2000/svg"
   xmlns:sodipodi="http://sodipodi.sourceforge.net/DTD/sodipodi-0.dtd"
   xmlns:inkscape="http://www.inkscape.org/namespaces/inkscape"
   width="162.92093mm"
   height="61.468765mm"
   viewBox="0 0 162.92093 61.468765"
   version="1.1"
   id="svg8"
   inkscape:version="0.92.3 (2405546, 2018-03-11)"
   sodipodi:docname="exempleClefsUV.svg">
  <defs
     id="defs2">
    <marker
       inkscape:stockid="Arrow2Lend"
       orient="auto"
       refY="0"
       refX="0"
       id="Arrow2Lend"
       style="overflow:visible"
       inkscape:isstock="true">
      <path
         id="path1143"
         style="fill:#4e4e4e;fill-opacity:1;fill-rule:evenodd;stroke:#4e4e4e;stroke-width:0.625;stroke-linejoin:round;stroke-opacity:1"
         d="M 8.7185878,4.0337352 -2.2072895,0.01601326 8.7185884,-4.0017078 c -1.7454984,2.3720609 -1.7354408,5.6174519 -6e-7,8.035443 z"
         transform="matrix(-1.1,0,0,-1.1,-1.1,0)"
         inkscape:connector-curvature="0" />
    </marker>
    <marker
       inkscape:stockid="Arrow1Mend"
       orient="auto"
       refY="0"
       refX="0"
       id="Arrow1Mend"
       style="overflow:visible"
       inkscape:isstock="true">
      <path
         id="path826"
         d="M 0,0 5,-5 -12.5,0 5,5 Z"
         style="fill:#000000;fill-opacity:1;fill-rule:evenodd;stroke:#000000;stroke-width:1.00000003pt;stroke-opacity:1"
         transform="matrix(-0.4,0,0,-0.4,-4,0)"
         inkscape:connector-curvature="0" />
    </marker>
    <marker
       inkscape:stockid="Arrow1Lend"
       orient="auto"
       refY="0"
       refX="0"
       id="Arrow1Lend"
       style="overflow:visible"
       inkscape:isstock="true">
      <path
         id="path820"
         d="M 0,0 5,-5 -12.5,0 5,5 Z"
         style="fill:#000000;fill-opacity:1;fill-rule:evenodd;stroke:#000000;stroke-width:1.00000003pt;stroke-opacity:1"
         transform="matrix(-0.8,0,0,-0.8,-10,0)"
         inkscape:connector-curvature="0" />
    </marker>
    <marker
       inkscape:stockid="Arrow1Sstart"
       orient="auto"
       refY="0"
       refX="0"
       id="Arrow1Sstart"
       style="overflow:visible"
       inkscape:isstock="true">
      <path
         id="path829"
         d="M 0,0 5,-5 -12.5,0 5,5 Z"
         style="fill:#000000;fill-opacity:1;fill-rule:evenodd;stroke:#000000;stroke-width:1.00000003pt;stroke-opacity:1"
         transform="matrix(0.2,0,0,0.2,1.2,0)"
         inkscape:connector-curvature="0" />
    </marker>
    <marker
       inkscape:stockid="StopL"
       orient="auto"
       refY="0"
       refX="0"
       id="StopL"
       style="overflow:visible"
       inkscape:isstock="true">
      <path
         id="path986"
         d="M 0,5.65 V -5.65"
         style="fill:none;fill-opacity:0.75;fill-rule:evenodd;stroke:#00ff00;stroke-width:1.00000003pt;stroke-opacity:1"
         transform="scale(0.8)"
         inkscape:connector-curvature="0" />
    </marker>
    <marker
       inkscape:stockid="StopL"
       orient="auto"
       refY="0"
       refX="0"
       id="StopL-3"
       style="overflow:visible"
       inkscape:isstock="true">
      <path
         inkscape:connector-curvature="0"
         id="path986-6"
         d="M 0,5.65 V -5.65"
         style="fill:none;fill-opacity:0.75;fill-rule:evenodd;stroke:#fb6e12;stroke-width:1.00000003pt;stroke-opacity:1"
         transform="scale(0.8)" />
    </marker>
    <marker
       inkscape:stockid="StopL"
       orient="auto"
       refY="0"
       refX="0"
       id="marker3695"
       style="overflow:visible"
       inkscape:isstock="true">
      <path
         inkscape:connector-curvature="0"
         id="path3693"
         d="M 0,5.65 V -5.65"
         style="fill:none;fill-opacity:0.75;fill-rule:evenodd;stroke:#00ff00;stroke-width:1.00000003pt;stroke-opacity:1"
         transform="scale(0.8)" />
    </marker>
    <marker
       inkscape:stockid="StopL"
       orient="auto"
       refY="0"
       refX="0"
       id="StopL-3-5"
       style="overflow:visible"
       inkscape:isstock="true">
      <path
         inkscape:connector-curvature="0"
         id="path986-6-3"
         d="M 0,5.65 V -5.65"
         style="fill:none;fill-opacity:0.75;fill-rule:evenodd;stroke:#fb6e12;stroke-width:1.00000003pt;stroke-opacity:1"
         transform="scale(0.8)" />
    </marker>
    <marker
       inkscape:stockid="StopL"
       orient="auto"
       refY="0"
       refX="0"
       id="marker7430"
       style="overflow:visible"
       inkscape:isstock="true">
      <path
         inkscape:connector-curvature="0"
         id="path7428"
         d="M 0,5.65 V -5.65"
         style="fill:none;fill-opacity:0.75;fill-rule:evenodd;stroke:#ee9113;stroke-width:1.00000003pt;stroke-opacity:1"
         transform="scale(0.8)" />
    </marker>
    <marker
       inkscape:stockid="StopL"
       orient="auto"
       refY="0"
       refX="0"
       id="StopL-5"
       style="overflow:visible"
       inkscape:isstock="true">
      <path
         inkscape:connector-curvature="0"
         id="path986-62"
         d="M 0,5.65 V -5.65"
         style="fill:none;fill-opacity:0.75;fill-rule:evenodd;stroke:#00ff00;stroke-width:1.00000003pt;stroke-opacity:1"
         transform="scale(0.8)" />
    </marker>
    <marker
       inkscape:stockid="StopL"
       orient="auto"
       refY="0"
       refX="0"
       id="marker7436"
       style="overflow:visible"
       inkscape:isstock="true">
      <path
         inkscape:connector-curvature="0"
         id="path7434"
         d="M 0,5.65 V -5.65"
         style="fill:none;fill-opacity:0.75;fill-rule:evenodd;stroke:#00ff00;stroke-width:1.00000003pt;stroke-opacity:1"
         transform="scale(0.8)" />
    </marker>
    <marker
       inkscape:stockid="StopL"
       orient="auto"
       refY="0"
       refX="0"
       id="StopL-5-7"
       style="overflow:visible"
       inkscape:isstock="true">
      <path
         inkscape:connector-curvature="0"
         id="path986-62-0"
         d="M 0,5.65 V -5.65"
         style="fill:none;fill-opacity:0.75;fill-rule:evenodd;stroke:#bc1207;stroke-width:1.00000003pt;stroke-opacity:1"
         transform="scale(0.8)" />
    </marker>
    <marker
       inkscape:stockid="StopL"
       orient="auto"
       refY="0"
       refX="0"
       id="marker8047"
       style="overflow:visible"
       inkscape:isstock="true">
      <path
         inkscape:connector-curvature="0"
         id="path8045"
         d="M 0,5.65 V -5.65"
         style="fill:none;fill-opacity:0.75;fill-rule:evenodd;stroke:#00ff00;stroke-width:1.00000003pt;stroke-opacity:1"
         transform="scale(0.8)" />
    </marker>
    <marker
       inkscape:stockid="StopL"
       orient="auto"
       refY="0"
       refX="0"
       id="StopL-5-7-3"
       style="overflow:visible"
       inkscape:isstock="true">
      <path
         inkscape:connector-curvature="0"
         id="path986-62-0-6"
         d="M 0,5.65 V -5.65"
         style="fill:none;fill-opacity:0.75;fill-rule:evenodd;stroke:#bc1207;stroke-width:1.00000003pt;stroke-opacity:1"
         transform="scale(0.8)" />
    </marker>
    <marker
       inkscape:stockid="StopL"
       orient="auto"
       refY="0"
       refX="0"
       id="marker11420"
       style="overflow:visible"
       inkscape:isstock="true">
      <path
         inkscape:connector-curvature="0"
         id="path11418"
         d="M 0,5.65 V -5.65"
         style="fill:none;fill-opacity:0.75;fill-rule:evenodd;stroke:#bc1207;stroke-width:1.00000003pt;stroke-opacity:1"
         transform="scale(0.8)" />
    </marker>
    <marker
       inkscape:stockid="StopL"
       orient="auto"
       refY="0"
       refX="0"
       id="StopL-3-5-0"
       style="overflow:visible"
       inkscape:isstock="true">
      <path
         inkscape:connector-curvature="0"
         id="path986-6-3-6"
         d="M 0,5.65 V -5.65"
         style="fill:none;fill-opacity:0.75;fill-rule:evenodd;stroke:#fb6e12;stroke-width:1.00000003pt;stroke-opacity:1"
         transform="scale(0.8)" />
    </marker>
    <marker
       inkscape:stockid="StopL"
       orient="auto"
       refY="0"
       refX="0"
       id="marker11426"
       style="overflow:visible"
       inkscape:isstock="true">
      <path
         inkscape:connector-curvature="0"
         id="path11424"
         d="M 0,5.65 V -5.65"
         style="fill:none;fill-opacity:0.75;fill-rule:evenodd;stroke:#ee9113;stroke-width:1.00000003pt;stroke-opacity:1"
         transform="scale(0.8)" />
    </marker>
    <marker
       inkscape:stockid="StopL"
       orient="auto"
       refY="0"
       refX="0"
       id="StopL-5-2"
       style="overflow:visible"
       inkscape:isstock="true">
      <path
         inkscape:connector-curvature="0"
         id="path986-62-6"
         d="M 0,5.65 V -5.65"
         style="fill:none;fill-opacity:0.75;fill-rule:evenodd;stroke:#00ff00;stroke-width:1.00000003pt;stroke-opacity:1"
         transform="scale(0.8)" />
    </marker>
    <marker
       inkscape:stockid="StopL"
       orient="auto"
       refY="0"
       refX="0"
       id="marker11432"
       style="overflow:visible"
       inkscape:isstock="true">
      <path
         inkscape:connector-curvature="0"
         id="path11430"
         d="M 0,5.65 V -5.65"
         style="fill:none;fill-opacity:0.75;fill-rule:evenodd;stroke:#00ff00;stroke-width:1.00000003pt;stroke-opacity:1"
         transform="scale(0.8)" />
    </marker>
    <marker
       inkscape:stockid="Arrow2Lend"
       orient="auto"
       refY="0"
       refX="0"
       id="Arrow2Lend-5"
       style="overflow:visible"
       inkscape:isstock="true">
      <path
         inkscape:connector-curvature="0"
         id="path1143-3"
         style="fill:#4e4e4e;fill-opacity:1;fill-rule:evenodd;stroke:#4e4e4e;stroke-width:0.625;stroke-linejoin:round;stroke-opacity:1"
         d="M 8.7185878,4.0337352 -2.2072895,0.01601326 8.7185884,-4.0017078 c -1.7454984,2.3720609 -1.7354408,5.6174519 -6e-7,8.035443 z"
         transform="matrix(-1.1,0,0,-1.1,-1.1,0)" />
    </marker>
  </defs>
  <sodipodi:namedview
     id="base"
     pagecolor="#ffffff"
     bordercolor="#666666"
     borderopacity="1.0"
     inkscape:pageopacity="0.0"
     inkscape:pageshadow="2"
     inkscape:zoom="0.9899495"
     inkscape:cx="300.35209"
     inkscape:cy="94.723089"
     inkscape:document-units="mm"
     inkscape:current-layer="layer1"
     showgrid="false"
     inkscape:window-width="1920"
     inkscape:window-height="1053"
     inkscape:window-x="0"
     inkscape:window-y="27"
     inkscape:window-maximized="1"
     showguides="false" />
  <metadata
     id="metadata5">
    <rdf:RDF>
      <cc:Work
         rdf:about="">
        <dc:format>image/svg+xml</dc:format>
        <dc:type
           rdf:resource="http://purl.org/dc/dcmitype/StillImage" />
        <dc:title />
      </cc:Work>
    </rdf:RDF>
  </metadata>
  <g
     inkscape:label="Layer 1"
     inkscape:groupmode="layer"
     id="layer1"
     transform="translate(-30.57476,-14.86259)">
    <rect
       style="opacity:1;fill:none;fill-opacity:1;stroke:#000000;stroke-width:0.97613597;stroke-linecap:square;stroke-miterlimit:4;stroke-dasharray:none;stroke-opacity:1;paint-order:markers fill stroke"
       id="rect896"
       width="24.023863"
       height="24.023865"
       x="32.97094"
       y="17.191444"
       rx="1.1435688e-38"
       ry="1.1482555e-38" />
    <rect
       style="opacity:1;fill:none;fill-opacity:1;stroke:#000000;stroke-width:1;stroke-linecap:square;stroke-miterlimit:4;stroke-dasharray:none;stroke-opacity:1;paint-order:markers fill stroke"
       id="rect896-3"
       width="24.311466"
       height="11.811466"
       x="61.584404"
       y="29.403845"
       rx="1.1572591e-38"
       ry="5.6454616e-39" />
    <rect
       style="opacity:1;fill:none;fill-opacity:1;stroke:#000000;stroke-width:1;stroke-linecap:square;stroke-miterlimit:4;stroke-dasharray:none;stroke-opacity:1;paint-order:markers fill stroke"
       id="rect896-3-6"
       width="24.311466"
       height="11.811466"
       x="61.584404"
       y="17.191444"
       rx="1.1572591e-38"
       ry="5.6454616e-39" />
    <rect
       style="opacity:1;fill:none;fill-opacity:1;stroke:#000000;stroke-width:1;stroke-linecap:square;stroke-miterlimit:4;stroke-dasharray:none;stroke-opacity:1;paint-order:markers fill stroke"
       id="rect896-3-7"
       width="24.311466"
       height="11.811466"
       x="90.341675"
       y="29.403843"
       rx="1.1572591e-38"
       ry="5.6454616e-39" />
    <rect
       style="opacity:1;fill:none;fill-opacity:1;stroke:#000000;stroke-width:1;stroke-linecap:square;stroke-miterlimit:4;stroke-dasharray:none;stroke-opacity:1;paint-order:markers fill stroke"
       id="rect896-3-6-5"
       width="24.311466"
       height="11.811466"
       x="90.341675"
       y="17.191442"
       rx="1.1572591e-38"
       ry="5.6454616e-39" />
    <text
       xml:space="preserve"
       style="font-style:normal;font-variant:normal;font-weight:normal;font-stretch:normal;font-size:10.58333302px;line-height:1.25;font-family:'TeX Gyre Adventor';-inkscape-font-specification:'TeX Gyre Adventor';text-align:center;letter-spacing:0px;word-spacing:0px;text-anchor:middle;fill:#000000;fill-opacity:1;stroke:none;stroke-width:0.26458332"
       x="44.787632"
       y="32.071106"
       id="text948"><tspan
         sodipodi:role="line"
         id="tspan946"
         x="44.787632"
         y="32.071106"
         style="font-style:normal;font-variant:normal;font-weight:normal;font-stretch:normal;font-size:7.76111126px;font-family:'TeX Gyre Adventor';-inkscape-font-specification:'TeX Gyre Adventor';stroke-width:0.26458332">NF26</tspan></text>
    <text
       xml:space="preserve"
       style="font-style:normal;font-weight:normal;font-size:10.58333302px;line-height:1.25;font-family:sans-serif;text-align:center;letter-spacing:0px;word-spacing:0px;text-anchor:middle;fill:#000000;fill-opacity:1;stroke:none;stroke-width:0.26458332"
       x="73.661461"
       y="24.645519"
       id="text952"><tspan
         sodipodi:role="line"
         id="tspan950"
         x="73.661461"
         y="24.645519"
         style="font-style:normal;font-variant:normal;font-weight:normal;font-stretch:normal;font-size:4.93888903px;font-family:'TeX Gyre Adventor';-inkscape-font-specification:'TeX Gyre Adventor';stroke-width:0.26458332">PSF_FDD</tspan></text>
    <text
       xml:space="preserve"
       style="font-style:normal;font-weight:normal;font-size:10.58333302px;line-height:1.25;font-family:sans-serif;text-align:center;letter-spacing:0px;word-spacing:0px;text-anchor:middle;fill:#000000;fill-opacity:1;stroke:none;stroke-width:0.26458332"
       x="73.52626"
       y="37.102394"
       id="text952-7"><tspan
         sodipodi:role="line"
         id="tspan950-2"
         x="73.52626"
         y="37.102394"
         style="font-style:italic;font-variant:normal;font-weight:normal;font-stretch:normal;font-size:4.93888903px;font-family:'TeX Gyre Adventor';-inkscape-font-specification:'TeX Gyre Adventor Italic';stroke-width:0.26458332">True</tspan></text>
    <text
       xml:space="preserve"
       style="font-style:normal;font-weight:normal;font-size:10.58333302px;line-height:1.25;font-family:sans-serif;text-align:center;letter-spacing:0px;word-spacing:0px;text-anchor:middle;fill:#000000;fill-opacity:1;stroke:none;stroke-width:0.26458332"
       x="102.41873"
       y="24.645517"
       id="text952-4"><tspan
         sodipodi:role="line"
         id="tspan950-0"
         x="102.41873"
         y="24.645517"
         style="font-style:normal;font-variant:normal;font-weight:normal;font-stretch:normal;font-size:4.93888903px;font-family:'TeX Gyre Adventor';-inkscape-font-specification:'TeX Gyre Adventor';stroke-width:0.26458332">PCB_F</tspan></text>
    <text
       xml:space="preserve"
       style="font-style:normal;font-weight:normal;font-size:10.58333302px;line-height:1.25;font-family:sans-serif;text-align:center;letter-spacing:0px;word-spacing:0px;text-anchor:middle;fill:#000000;fill-opacity:1;stroke:none;stroke-width:0.26458332"
       x="102.28353"
       y="37.102394"
       id="text952-7-6"><tspan
         sodipodi:role="line"
         id="tspan950-2-2"
         x="102.28353"
         y="37.102394"
         style="font-style:italic;font-variant:normal;font-weight:normal;font-stretch:normal;font-size:4.93888903px;font-family:'TeX Gyre Adventor';-inkscape-font-specification:'TeX Gyre Adventor Italic';stroke-width:0.26458332">...</tspan></text>
    <rect
       style="opacity:1;fill:none;fill-opacity:1;stroke:#000000;stroke-width:0.5;stroke-linecap:square;stroke-miterlimit:4;stroke-dasharray:none;stroke-opacity:1;paint-order:markers fill stroke"
       id="rect996"
       width="109.51862"
       height="28.181574"
       x="30.82476"
       y="15.11259"
       rx="1.1020213e-38"
       ry="1.1020213e-38" />
    <rect
       style="opacity:1;fill:none;fill-opacity:1;stroke:#000000;stroke-width:0.97613597;stroke-linecap:square;stroke-miterlimit:4;stroke-dasharray:none;stroke-opacity:1;paint-order:markers fill stroke"
       id="rect896-9"
       width="24.023863"
       height="24.023865"
       x="32.97094"
       y="49.978634"
       rx="1.1435688e-38"
       ry="1.1482555e-38" />
    <rect
       style="opacity:1;fill:none;fill-opacity:1;stroke:#000000;stroke-width:1;stroke-linecap:square;stroke-miterlimit:4;stroke-dasharray:none;stroke-opacity:1;paint-order:markers fill stroke"
       id="rect896-3-9"
       width="24.311466"
       height="11.811466"
       x="61.584412"
       y="62.191036"
       rx="1.1572591e-38"
       ry="5.6454616e-39" />
    <rect
       style="opacity:1;fill:none;fill-opacity:1;stroke:#000000;stroke-width:1;stroke-linecap:square;stroke-miterlimit:4;stroke-dasharray:none;stroke-opacity:1;paint-order:markers fill stroke"
       id="rect896-3-6-0"
       width="24.311466"
       height="11.811466"
       x="61.584412"
       y="49.978634"
       rx="1.1572591e-38"
       ry="5.6454616e-39" />
    <rect
       style="opacity:1;fill:none;fill-opacity:1;stroke:#000000;stroke-width:1;stroke-linecap:square;stroke-miterlimit:4;stroke-dasharray:none;stroke-opacity:1;paint-order:markers fill stroke"
       id="rect896-3-7-8"
       width="24.311466"
       height="11.811466"
       x="90.341675"
       y="62.191032"
       rx="1.1572591e-38"
       ry="5.6454616e-39" />
    <rect
       style="opacity:1;fill:none;fill-opacity:1;stroke:#000000;stroke-width:1;stroke-linecap:square;stroke-miterlimit:4;stroke-dasharray:none;stroke-opacity:1;paint-order:markers fill stroke"
       id="rect896-3-6-5-1"
       width="24.311466"
       height="11.811466"
       x="90.341675"
       y="49.978634"
       rx="1.1572591e-38"
       ry="5.6454616e-39" />
    <text
       xml:space="preserve"
       style="font-style:normal;font-variant:normal;font-weight:normal;font-stretch:normal;font-size:10.58333302px;line-height:1.25;font-family:'TeX Gyre Adventor';-inkscape-font-specification:'TeX Gyre Adventor';text-align:center;letter-spacing:0px;word-spacing:0px;text-anchor:middle;fill:#000000;fill-opacity:1;stroke:none;stroke-width:0.26458332"
       x="44.787636"
       y="64.858292"
       id="text948-3"><tspan
         sodipodi:role="line"
         id="tspan946-1"
         x="44.787636"
         y="64.858292"
         style="font-style:normal;font-variant:normal;font-weight:normal;font-stretch:normal;font-size:7.76111126px;font-family:'TeX Gyre Adventor';-inkscape-font-specification:'TeX Gyre Adventor';stroke-width:0.26458332">SY02</tspan></text>
    <text
       xml:space="preserve"
       style="font-style:normal;font-weight:normal;font-size:10.58333302px;line-height:1.25;font-family:sans-serif;text-align:center;letter-spacing:0px;word-spacing:0px;text-anchor:middle;fill:#000000;fill-opacity:1;stroke:none;stroke-width:0.26458332"
       x="73.661453"
       y="57.432709"
       id="text952-1"><tspan
         sodipodi:role="line"
         id="tspan950-03"
         x="73.661453"
         y="57.432709"
         style="font-style:normal;font-variant:normal;font-weight:normal;font-stretch:normal;font-size:4.93888903px;font-family:'TeX Gyre Adventor';-inkscape-font-specification:'TeX Gyre Adventor';stroke-width:0.26458332">PCB_GI</tspan></text>
    <text
       xml:space="preserve"
       style="font-style:normal;font-weight:normal;font-size:10.58333302px;line-height:1.25;font-family:sans-serif;text-align:center;letter-spacing:0px;word-spacing:0px;text-anchor:middle;fill:#000000;fill-opacity:1;stroke:none;stroke-width:0.26458332"
       x="73.52626"
       y="69.88958"
       id="text952-7-4"><tspan
         sodipodi:role="line"
         id="tspan950-2-0"
         x="73.52626"
         y="69.88958"
         style="font-style:italic;font-variant:normal;font-weight:normal;font-stretch:normal;font-size:4.93888903px;font-family:'TeX Gyre Adventor';-inkscape-font-specification:'TeX Gyre Adventor Italic';stroke-width:0.26458332">True</tspan></text>
    <text
       xml:space="preserve"
       style="font-style:normal;font-weight:normal;font-size:10.58333302px;line-height:1.25;font-family:sans-serif;text-align:center;letter-spacing:0px;word-spacing:0px;text-anchor:middle;fill:#000000;fill-opacity:1;stroke:none;stroke-width:0.26458332"
       x="102.41875"
       y="57.432709"
       id="text952-4-3"><tspan
         sodipodi:role="line"
         id="tspan950-0-9"
         x="102.41875"
         y="57.432709"
         style="font-style:normal;font-variant:normal;font-weight:normal;font-stretch:normal;font-size:4.93888903px;font-family:'TeX Gyre Adventor';-inkscape-font-specification:'TeX Gyre Adventor';stroke-width:0.26458332">PCB_GB</tspan></text>
    <text
       xml:space="preserve"
       style="font-style:normal;font-weight:normal;font-size:10.58333302px;line-height:1.25;font-family:sans-serif;text-align:center;letter-spacing:0px;word-spacing:0px;text-anchor:middle;fill:#000000;fill-opacity:1;stroke:none;stroke-width:0.26458332"
       x="102.28354"
       y="69.88958"
       id="text952-7-6-1"><tspan
         sodipodi:role="line"
         id="tspan950-2-2-9"
         x="102.28354"
         y="69.88958"
         style="font-style:italic;font-variant:normal;font-weight:normal;font-stretch:normal;font-size:4.93888903px;font-family:'TeX Gyre Adventor';-inkscape-font-specification:'TeX Gyre Adventor Italic';stroke-width:0.26458332">True</tspan></text>
    <rect
       style="opacity:1;fill:none;fill-opacity:1;stroke:#000000;stroke-width:0.5;stroke-linecap:square;stroke-miterlimit:4;stroke-dasharray:none;stroke-opacity:1;paint-order:markers fill stroke"
       id="rect996-6"
       width="109.51862"
       height="28.181574"
       x="30.82476"
       y="47.89978"
       rx="1.1020213e-38"
       ry="1.1020213e-38" />
    <flowRoot
       xml:space="preserve"
       id="flowRoot1112"
       style="font-style:normal;font-weight:normal;font-size:40px;line-height:1.25;font-family:sans-serif;text-align:start;letter-spacing:0px;word-spacing:0px;text-anchor:start;fill:#000000;fill-opacity:1;stroke:none"
       transform="matrix(0.26458333,0,0,0.26458333,29.852663,14.844289)"><flowRegion
         id="flowRegion1114"
         style="text-align:start;text-anchor:start"><rect
           id="rect1116"
           width="117.14286"
           height="92.14286"
           x="450.71429"
           y="12.52704"
           style="text-align:start;text-anchor:start" /></flowRegion><flowPara
         id="flowPara1118" /></flowRoot>    <text
       xml:space="preserve"
       style="font-style:normal;font-weight:normal;font-size:10.58333302px;line-height:1.25;font-family:sans-serif;text-align:center;letter-spacing:0px;word-spacing:0px;text-anchor:middle;fill:#000000;fill-opacity:1;stroke:none;stroke-width:0.26458332"
       x="157.04166"
       y="26.096235"
       id="text1122"><tspan
         sodipodi:role="line"
         id="tspan1120"
         x="157.04166"
         y="35.460003"
         style="stroke-width:0.26458332" /></text>
    <text
       xml:space="preserve"
       style="font-style:normal;font-weight:normal;font-size:10.58333302px;line-height:0.5;font-family:sans-serif;text-align:start;letter-spacing:0px;word-spacing:0px;text-anchor:start;fill:#809402;fill-opacity:0.96078431;stroke:none;stroke-width:0.26458332"
       x="143.91245"
       y="19.724943"
       id="text1132"><tspan
         sodipodi:role="line"
         id="tspan1130"
         x="143.91245"
         y="19.724943"
         style="font-style:normal;font-variant:normal;font-weight:bold;font-stretch:normal;font-size:4.23333311px;line-height:0.5;font-family:'TeX Gyre Cursor';-inkscape-font-specification:'TeX Gyre Cursor Bold';fill:#7c7c7c;fill-opacity:0.96078431;stroke-width:0.26458332"># Pour NF26 :</tspan><tspan
         sodipodi:role="line"
         x="143.91245"
         y="25.016609"
         style="font-style:normal;font-variant:normal;font-weight:bold;font-stretch:normal;font-size:4.23333311px;line-height:0.5;font-family:'TeX Gyre Cursor';-inkscape-font-specification:'TeX Gyre Cursor Bold';fill:#000002;fill-opacity:0.96078431;stroke-width:0.26458332"
         id="tspan922">{</tspan><tspan
         sodipodi:role="line"
         x="143.91245"
         y="30.308277"
         style="font-style:normal;font-variant:normal;font-weight:bold;font-stretch:normal;font-size:4.23333311px;line-height:0.5;font-family:'TeX Gyre Cursor';-inkscape-font-specification:'TeX Gyre Cursor Bold';fill:#809402;fill-opacity:0.96078431;stroke-width:0.26458332"
         id="tspan1134">    <tspan
   style="font-style:normal;font-variant:normal;font-weight:bold;font-stretch:normal;font-family:'TeX Gyre Cursor';-inkscape-font-specification:'TeX Gyre Cursor Bold';fill:#ba2121;fill-opacity:1"
   id="tspan1244">&quot;PSF_FDD&quot;</tspan><tspan
   style="font-style:normal;font-variant:normal;font-weight:bold;font-stretch:normal;font-family:'TeX Gyre Cursor';-inkscape-font-specification:'TeX Gyre Cursor Bold';fill:#000000;fill-opacity:0.96078431"
   id="tspan1142">:</tspan> <tspan
   style="font-style:normal;font-variant:normal;font-weight:bold;font-stretch:normal;font-family:'TeX Gyre Cursor';-inkscape-font-specification:'TeX Gyre Cursor Bold';fill:#008000;fill-opacity:1"
   id="tspan1176">True</tspan><tspan
   style="font-style:normal;font-variant:normal;font-weight:bold;font-stretch:normal;font-family:'TeX Gyre Cursor';-inkscape-font-specification:'TeX Gyre Cursor Bold';fill:#000000;fill-opacity:0.96078431"
   id="tspan1174">,</tspan></tspan><tspan
         sodipodi:role="line"
         x="143.91245"
         y="35.599941"
         style="font-style:normal;font-variant:normal;font-weight:bold;font-stretch:normal;font-size:4.23333311px;line-height:0.5;font-family:'TeX Gyre Cursor';-inkscape-font-specification:'TeX Gyre Cursor Bold';fill:#809402;fill-opacity:0.96078431;stroke-width:0.26458332"
         id="tspan1136">    <tspan
   style="font-style:normal;font-variant:normal;font-weight:bold;font-stretch:normal;font-family:'TeX Gyre Cursor';-inkscape-font-specification:'TeX Gyre Cursor Bold';fill:#ba2121;fill-opacity:1"
   id="tspan1248">&quot;PCB_F&quot;</tspan><tspan
   style="font-style:normal;font-variant:normal;font-weight:bold;font-stretch:normal;font-family:'TeX Gyre Cursor';-inkscape-font-specification:'TeX Gyre Cursor Bold';fill:#000000;fill-opacity:0.96078431"
   id="tspan1156">:</tspan> <tspan
   style="font-style:normal;font-variant:normal;font-weight:bold;font-stretch:normal;font-family:'TeX Gyre Cursor';-inkscape-font-specification:'TeX Gyre Cursor Bold';fill:#ba2121;fill-opacity:1"
   id="tspan1178">&quot;...&quot;</tspan></tspan><tspan
         sodipodi:role="line"
         x="143.91245"
         y="40.891609"
         style="font-style:normal;font-variant:normal;font-weight:bold;font-stretch:normal;font-size:4.23333311px;line-height:0.5;font-family:'TeX Gyre Cursor';-inkscape-font-specification:'TeX Gyre Cursor Bold';fill:#000000;fill-opacity:0.96078431;stroke-width:0.26458332"
         id="tspan1138">}</tspan></text>
    <text
       xml:space="preserve"
       style="font-style:normal;font-weight:normal;font-size:10.58333302px;line-height:0.5;font-family:sans-serif;text-align:start;letter-spacing:0px;word-spacing:0px;text-anchor:start;fill:#809402;fill-opacity:0.96078431;stroke:none;stroke-width:0.26458332"
       x="143.91245"
       y="52.512135"
       id="text1132-04"><tspan
         sodipodi:role="line"
         id="tspan1130-6"
         x="143.91245"
         y="52.512135"
         style="font-style:normal;font-variant:normal;font-weight:bold;font-stretch:normal;font-size:4.23333311px;line-height:0.5;font-family:'TeX Gyre Cursor';-inkscape-font-specification:'TeX Gyre Cursor Bold';fill:#7c7c7c;fill-opacity:0.96078431;stroke-width:0.26458332"># Pour SY02 :</tspan><tspan
         sodipodi:role="line"
         x="143.91245"
         y="57.803802"
         style="font-style:normal;font-variant:normal;font-weight:bold;font-stretch:normal;font-size:4.23333311px;line-height:0.5;font-family:'TeX Gyre Cursor';-inkscape-font-specification:'TeX Gyre Cursor Bold';fill:#000002;fill-opacity:0.96078431;stroke-width:0.26458332"
         id="tspan924">{</tspan><tspan
         sodipodi:role="line"
         x="143.91245"
         y="63.095467"
         style="font-style:normal;font-variant:normal;font-weight:bold;font-stretch:normal;font-size:4.23333311px;line-height:0.5;font-family:'TeX Gyre Cursor';-inkscape-font-specification:'TeX Gyre Cursor Bold';fill:#809402;fill-opacity:0.96078431;stroke-width:0.26458332"
         id="tspan1134-7">    <tspan
   style="font-style:normal;font-variant:normal;font-weight:bold;font-stretch:normal;font-family:'TeX Gyre Cursor';-inkscape-font-specification:'TeX Gyre Cursor Bold';fill:#ba2121;fill-opacity:1;stroke-width:0.26458332"
   id="tspan1244-6">&quot;PCB_GI&quot;</tspan><tspan
   style="font-style:normal;font-variant:normal;font-weight:bold;font-stretch:normal;font-family:'TeX Gyre Cursor';-inkscape-font-specification:'TeX Gyre Cursor Bold';fill:#000000;fill-opacity:0.96078431;stroke-width:0.26458332"
   id="tspan1142-0">:</tspan> <tspan
   style="font-style:normal;font-variant:normal;font-weight:bold;font-stretch:normal;font-family:'TeX Gyre Cursor';-inkscape-font-specification:'TeX Gyre Cursor Bold';fill:#008000;fill-opacity:1;stroke-width:0.26458332"
   id="tspan1176-9">True</tspan><tspan
   style="font-style:normal;font-variant:normal;font-weight:bold;font-stretch:normal;font-family:'TeX Gyre Cursor';-inkscape-font-specification:'TeX Gyre Cursor Bold';fill:#000000;fill-opacity:0.96078431;stroke-width:0.26458332"
   id="tspan1174-7">,</tspan></tspan><tspan
         sodipodi:role="line"
         x="143.91245"
         y="68.387131"
         style="font-style:normal;font-variant:normal;font-weight:bold;font-stretch:normal;font-size:4.23333311px;line-height:0.5;font-family:'TeX Gyre Cursor';-inkscape-font-specification:'TeX Gyre Cursor Bold';fill:#809402;fill-opacity:0.96078431;stroke-width:0.26458332"
         id="tspan1136-5">    <tspan
   style="font-style:normal;font-variant:normal;font-weight:bold;font-stretch:normal;font-family:'TeX Gyre Cursor';-inkscape-font-specification:'TeX Gyre Cursor Bold';fill:#ba2121;fill-opacity:1;stroke-width:0.26458332"
   id="tspan1248-9">&quot;PCB_GB&quot;</tspan><tspan
   style="font-style:normal;font-variant:normal;font-weight:bold;font-stretch:normal;font-family:'TeX Gyre Cursor';-inkscape-font-specification:'TeX Gyre Cursor Bold';fill:#000000;fill-opacity:0.96078431;stroke-width:0.26458332"
   id="tspan1156-7">:</tspan> <tspan
   style="fill:#008000;fill-opacity:1"
   id="tspan1298">True</tspan></tspan><tspan
         sodipodi:role="line"
         x="143.91245"
         y="73.678802"
         style="font-style:normal;font-variant:normal;font-weight:bold;font-stretch:normal;font-size:4.23333311px;line-height:0.5;font-family:'TeX Gyre Cursor';-inkscape-font-specification:'TeX Gyre Cursor Bold';fill:#000000;fill-opacity:0.96078431;stroke-width:0.26458332"
         id="tspan1138-5">}</tspan></text>
  </g>
</svg>
