<?xml version="1.0" encoding="UTF-8" standalone="no"?>
<!-- Created with Inkscape (http://www.inkscape.org/) -->

<svg
   xmlns:dc="http://purl.org/dc/elements/1.1/"
   xmlns:cc="http://creativecommons.org/ns#"
   xmlns:rdf="http://www.w3.org/1999/02/22-rdf-syntax-ns#"
   xmlns:svg="http://www.w3.org/2000/svg"
   xmlns="http://www.w3.org/2000/svg"
   xmlns:sodipodi="http://sodipodi.sourceforge.net/DTD/sodipodi-0.dtd"
   xmlns:inkscape="http://www.inkscape.org/namespaces/inkscape"
   width="169.98274mm"
   height="67.611557mm"
   viewBox="0 0 169.98274 67.611557"
   version="1.1"
   id="svg8"
   inkscape:version="0.92.3 (2405546, 2018-03-11)"
   sodipodi:docname="extension_sharding.svg">
  <defs
     id="defs2">
    <marker
       inkscape:stockid="Arrow2Lend"
       orient="auto"
       refY="0.0"
       refX="0.0"
       id="Arrow2Lend"
       style="overflow:visible;"
       inkscape:isstock="true">
      <path
         id="path1143"
         style="fill-rule:evenodd;stroke-width:0.625;stroke-linejoin:round;stroke:#4e4e4e;stroke-opacity:1;fill:#4e4e4e;fill-opacity:1"
         d="M 8.7185878,4.0337352 L -2.2072895,0.016013256 L 8.7185884,-4.0017078 C 6.9730900,-1.6296469 6.9831476,1.6157441 8.7185878,4.0337352 z "
         transform="scale(1.1) rotate(180) translate(1,0)" />
    </marker>
    <marker
       inkscape:stockid="Arrow1Mend"
       orient="auto"
       refY="0"
       refX="0"
       id="Arrow1Mend"
       style="overflow:visible"
       inkscape:isstock="true">
      <path
         id="path826"
         d="M 0,0 5,-5 -12.5,0 5,5 Z"
         style="fill:#000000;fill-opacity:1;fill-rule:evenodd;stroke:#000000;stroke-width:1.00000003pt;stroke-opacity:1"
         transform="matrix(-0.4,0,0,-0.4,-4,0)"
         inkscape:connector-curvature="0" />
    </marker>
    <marker
       inkscape:stockid="Arrow1Lend"
       orient="auto"
       refY="0"
       refX="0"
       id="Arrow1Lend"
       style="overflow:visible"
       inkscape:isstock="true">
      <path
         id="path820"
         d="M 0,0 5,-5 -12.5,0 5,5 Z"
         style="fill:#000000;fill-opacity:1;fill-rule:evenodd;stroke:#000000;stroke-width:1.00000003pt;stroke-opacity:1"
         transform="matrix(-0.8,0,0,-0.8,-10,0)"
         inkscape:connector-curvature="0" />
    </marker>
    <marker
       inkscape:stockid="Arrow1Sstart"
       orient="auto"
       refY="0"
       refX="0"
       id="Arrow1Sstart"
       style="overflow:visible"
       inkscape:isstock="true">
      <path
         id="path829"
         d="M 0,0 5,-5 -12.5,0 5,5 Z"
         style="fill:#000000;fill-opacity:1;fill-rule:evenodd;stroke:#000000;stroke-width:1.00000003pt;stroke-opacity:1"
         transform="matrix(0.2,0,0,0.2,1.2,0)"
         inkscape:connector-curvature="0" />
    </marker>
    <marker
       inkscape:stockid="StopL"
       orient="auto"
       refY="0"
       refX="0"
       id="StopL"
       style="overflow:visible"
       inkscape:isstock="true">
      <path
         id="path986"
         d="M 0,5.65 V -5.65"
         style="fill:none;fill-opacity:0.75;fill-rule:evenodd;stroke:#00ff00;stroke-width:1.00000003pt;stroke-opacity:1"
         transform="scale(0.8)"
         inkscape:connector-curvature="0" />
    </marker>
    <marker
       inkscape:stockid="StopL"
       orient="auto"
       refY="0"
       refX="0"
       id="StopL-3"
       style="overflow:visible"
       inkscape:isstock="true">
      <path
         inkscape:connector-curvature="0"
         id="path986-6"
         d="M 0,5.65 V -5.65"
         style="fill:none;fill-opacity:0.75;fill-rule:evenodd;stroke:#fb6e12;stroke-width:1.00000003pt;stroke-opacity:1"
         transform="scale(0.8)" />
    </marker>
    <marker
       inkscape:stockid="StopL"
       orient="auto"
       refY="0"
       refX="0"
       id="marker3695"
       style="overflow:visible"
       inkscape:isstock="true">
      <path
         inkscape:connector-curvature="0"
         id="path3693"
         d="M 0,5.65 V -5.65"
         style="fill:none;fill-opacity:0.75;fill-rule:evenodd;stroke:#00ff00;stroke-width:1.00000003pt;stroke-opacity:1"
         transform="scale(0.8)" />
    </marker>
    <marker
       inkscape:stockid="StopL"
       orient="auto"
       refY="0"
       refX="0"
       id="StopL-3-5"
       style="overflow:visible"
       inkscape:isstock="true">
      <path
         inkscape:connector-curvature="0"
         id="path986-6-3"
         d="M 0,5.65 V -5.65"
         style="fill:none;fill-opacity:0.75;fill-rule:evenodd;stroke:#fb6e12;stroke-width:1.00000003pt;stroke-opacity:1"
         transform="scale(0.8)" />
    </marker>
    <marker
       inkscape:stockid="StopL"
       orient="auto"
       refY="0"
       refX="0"
       id="marker7430"
       style="overflow:visible"
       inkscape:isstock="true">
      <path
         inkscape:connector-curvature="0"
         id="path7428"
         d="M 0,5.65 V -5.65"
         style="fill:none;fill-opacity:0.75;fill-rule:evenodd;stroke:#ee9113;stroke-width:1.00000003pt;stroke-opacity:1"
         transform="scale(0.8)" />
    </marker>
    <marker
       inkscape:stockid="StopL"
       orient="auto"
       refY="0"
       refX="0"
       id="StopL-5"
       style="overflow:visible"
       inkscape:isstock="true">
      <path
         inkscape:connector-curvature="0"
         id="path986-62"
         d="M 0,5.65 V -5.65"
         style="fill:none;fill-opacity:0.75;fill-rule:evenodd;stroke:#00ff00;stroke-width:1.00000003pt;stroke-opacity:1"
         transform="scale(0.8)" />
    </marker>
    <marker
       inkscape:stockid="StopL"
       orient="auto"
       refY="0"
       refX="0"
       id="marker7436"
       style="overflow:visible"
       inkscape:isstock="true">
      <path
         inkscape:connector-curvature="0"
         id="path7434"
         d="M 0,5.65 V -5.65"
         style="fill:none;fill-opacity:0.75;fill-rule:evenodd;stroke:#00ff00;stroke-width:1.00000003pt;stroke-opacity:1"
         transform="scale(0.8)" />
    </marker>
    <marker
       inkscape:stockid="StopL"
       orient="auto"
       refY="0"
       refX="0"
       id="StopL-5-7"
       style="overflow:visible"
       inkscape:isstock="true">
      <path
         inkscape:connector-curvature="0"
         id="path986-62-0"
         d="M 0,5.65 V -5.65"
         style="fill:none;fill-opacity:0.75;fill-rule:evenodd;stroke:#bc1207;stroke-width:1.00000003pt;stroke-opacity:1"
         transform="scale(0.8)" />
    </marker>
    <marker
       inkscape:stockid="StopL"
       orient="auto"
       refY="0"
       refX="0"
       id="marker8047"
       style="overflow:visible"
       inkscape:isstock="true">
      <path
         inkscape:connector-curvature="0"
         id="path8045"
         d="M 0,5.65 V -5.65"
         style="fill:none;fill-opacity:0.75;fill-rule:evenodd;stroke:#00ff00;stroke-width:1.00000003pt;stroke-opacity:1"
         transform="scale(0.8)" />
    </marker>
    <marker
       inkscape:stockid="StopL"
       orient="auto"
       refY="0"
       refX="0"
       id="StopL-5-7-3"
       style="overflow:visible"
       inkscape:isstock="true">
      <path
         inkscape:connector-curvature="0"
         id="path986-62-0-6"
         d="M 0,5.65 V -5.65"
         style="fill:none;fill-opacity:0.75;fill-rule:evenodd;stroke:#bc1207;stroke-width:1.00000003pt;stroke-opacity:1"
         transform="scale(0.8)" />
    </marker>
    <marker
       inkscape:stockid="StopL"
       orient="auto"
       refY="0"
       refX="0"
       id="marker11420"
       style="overflow:visible"
       inkscape:isstock="true">
      <path
         inkscape:connector-curvature="0"
         id="path11418"
         d="M 0,5.65 V -5.65"
         style="fill:none;fill-opacity:0.75;fill-rule:evenodd;stroke:#bc1207;stroke-width:1.00000003pt;stroke-opacity:1"
         transform="scale(0.8)" />
    </marker>
    <marker
       inkscape:stockid="StopL"
       orient="auto"
       refY="0"
       refX="0"
       id="StopL-3-5-0"
       style="overflow:visible"
       inkscape:isstock="true">
      <path
         inkscape:connector-curvature="0"
         id="path986-6-3-6"
         d="M 0,5.65 V -5.65"
         style="fill:none;fill-opacity:0.75;fill-rule:evenodd;stroke:#fb6e12;stroke-width:1.00000003pt;stroke-opacity:1"
         transform="scale(0.8)" />
    </marker>
    <marker
       inkscape:stockid="StopL"
       orient="auto"
       refY="0"
       refX="0"
       id="marker11426"
       style="overflow:visible"
       inkscape:isstock="true">
      <path
         inkscape:connector-curvature="0"
         id="path11424"
         d="M 0,5.65 V -5.65"
         style="fill:none;fill-opacity:0.75;fill-rule:evenodd;stroke:#ee9113;stroke-width:1.00000003pt;stroke-opacity:1"
         transform="scale(0.8)" />
    </marker>
    <marker
       inkscape:stockid="StopL"
       orient="auto"
       refY="0"
       refX="0"
       id="StopL-5-2"
       style="overflow:visible"
       inkscape:isstock="true">
      <path
         inkscape:connector-curvature="0"
         id="path986-62-6"
         d="M 0,5.65 V -5.65"
         style="fill:none;fill-opacity:0.75;fill-rule:evenodd;stroke:#00ff00;stroke-width:1.00000003pt;stroke-opacity:1"
         transform="scale(0.8)" />
    </marker>
    <marker
       inkscape:stockid="StopL"
       orient="auto"
       refY="0"
       refX="0"
       id="marker11432"
       style="overflow:visible"
       inkscape:isstock="true">
      <path
         inkscape:connector-curvature="0"
         id="path11430"
         d="M 0,5.65 V -5.65"
         style="fill:none;fill-opacity:0.75;fill-rule:evenodd;stroke:#00ff00;stroke-width:1.00000003pt;stroke-opacity:1"
         transform="scale(0.8)" />
    </marker>
    <marker
       inkscape:stockid="Arrow2Lend"
       orient="auto"
       refY="0"
       refX="0"
       id="Arrow2Lend-5"
       style="overflow:visible"
       inkscape:isstock="true">
      <path
         inkscape:connector-curvature="0"
         id="path1143-3"
         style="fill:#4e4e4e;fill-opacity:1;fill-rule:evenodd;stroke:#4e4e4e;stroke-width:0.625;stroke-linejoin:round;stroke-opacity:1"
         d="M 8.7185878,4.0337352 -2.2072895,0.01601326 8.7185884,-4.0017078 c -1.7454984,2.3720609 -1.7354408,5.6174519 -6e-7,8.035443 z"
         transform="matrix(-1.1,0,0,-1.1,-1.1,0)" />
    </marker>
  </defs>
  <sodipodi:namedview
     id="base"
     pagecolor="#ffffff"
     bordercolor="#666666"
     borderopacity="1.0"
     inkscape:pageopacity="0.0"
     inkscape:pageshadow="2"
     inkscape:zoom="1.4"
     inkscape:cx="228.17835"
     inkscape:cy="188.31205"
     inkscape:document-units="mm"
     inkscape:current-layer="layer1"
     showgrid="false"
     inkscape:window-width="1920"
     inkscape:window-height="1053"
     inkscape:window-x="0"
     inkscape:window-y="27"
     inkscape:window-maximized="1" />
  <metadata
     id="metadata5">
    <rdf:RDF>
      <cc:Work
         rdf:about="">
        <dc:format>image/svg+xml</dc:format>
        <dc:type
           rdf:resource="http://purl.org/dc/dcmitype/StillImage" />
        <dc:title />
      </cc:Work>
    </rdf:RDF>
  </metadata>
  <g
     inkscape:label="Layer 1"
     inkscape:groupmode="layer"
     id="layer1"
     transform="translate(-23.346051,-13.145905)">
    <g
       id="g15340"
       transform="translate(-7.5595247,9.7328892)">
      <path
         sodipodi:open="true"
         d="M 73.658485,27.329342 A 18.992001,18.992001 0 0 1 61.026492,45.122681 18.992001,18.992001 0 0 1 39.998747,39.291377"
         sodipodi:end="2.4532908"
         sodipodi:start="0.0053806313"
         sodipodi:ry="18.992001"
         sodipodi:rx="18.992001"
         sodipodi:cy="27.227154"
         sodipodi:cx="54.666759"
         sodipodi:type="arc"
         id="path815"
         style="opacity:1;fill:none;fill-opacity:1;stroke:#00ff00;stroke-width:0.67799997;stroke-miterlimit:4;stroke-dasharray:none;stroke-opacity:1;marker-start:url(#StopL);marker-end:url(#StopL)" />
      <circle
         r="23.246"
         cy="26.841516"
         cx="54.334076"
         id="path3621"
         style="opacity:1;fill:none;fill-opacity:1;stroke:#000000;stroke-width:0.36500001;stroke-miterlimit:4;stroke-dasharray:none;stroke-opacity:1" />
      <path
         transform="scale(-1)"
         sodipodi:open="true"
         d="m -39.469579,-38.233042 a 18.992001,18.992001 0 0 1 0.68736,22.293891 18.992001,18.992001 0 0 1 -20.979549,7.572882 18.992001,18.992001 0 0 1 -13.710418,-17.593023"
         sodipodi:end="3.1071999"
         sodipodi:start="5.6247589"
         sodipodi:ry="18.992001"
         sodipodi:rx="18.992001"
         sodipodi:cy="-26.61235"
         sodipodi:cx="-54.491417"
         sodipodi:type="arc"
         id="path815-7"
         style="opacity:1;fill:none;fill-opacity:1;stroke:#fb6e12;stroke-width:0.67799997;stroke-miterlimit:4;stroke-dasharray:none;stroke-opacity:1;marker-start:url(#StopL-3);marker-end:url(#StopL-3)" />
    </g>
    <g
       id="g15305"
       transform="translate(-10.72508,11.528273)">
      <path
         sodipodi:open="true"
         d="M 138.38691,25.533957 A 18.992001,18.992001 0 0 1 125.75492,43.327296 18.992001,18.992001 0 0 1 104.72717,37.495992"
         sodipodi:end="2.4532908"
         sodipodi:start="0.0053806313"
         sodipodi:ry="18.992001"
         sodipodi:rx="18.992001"
         sodipodi:cy="25.431768"
         sodipodi:cx="119.39519"
         sodipodi:type="arc"
         id="path815-9"
         style="opacity:1;fill:none;fill-opacity:1;stroke:#00ff00;stroke-width:0.67799997;stroke-miterlimit:4;stroke-dasharray:none;stroke-opacity:1;marker-start:url(#StopL-5);marker-end:url(#StopL-5)" />
      <circle
         r="23.246"
         cy="25.046133"
         cx="119.0625"
         id="path3621-1"
         style="opacity:1;fill:none;fill-opacity:1;stroke:#000000;stroke-width:0.36500001;stroke-miterlimit:4;stroke-dasharray:none;stroke-opacity:1" />
      <path
         transform="scale(-1)"
         sodipodi:open="true"
         d="m -104.198,-36.437661 a 18.992001,18.992001 0 0 1 0.68736,22.293891 18.992001,18.992001 0 0 1 -20.97955,7.5728825 18.992001,18.992001 0 0 1 -13.71042,-17.5930225"
         sodipodi:end="3.1071999"
         sodipodi:start="5.6247589"
         sodipodi:ry="18.992001"
         sodipodi:rx="18.992001"
         sodipodi:cy="-24.816969"
         sodipodi:cx="-119.21984"
         sodipodi:type="arc"
         id="path815-7-2"
         style="opacity:1;fill:none;fill-opacity:1;stroke:#fb6e12;stroke-width:0.67799997;stroke-miterlimit:4;stroke-dasharray:none;stroke-opacity:1;marker-start:url(#StopL-3-5);marker-end:url(#StopL-3-5)" />
      <path
         transform="rotate(103.29841)"
         sodipodi:open="true"
         d="m 9.6627023,-116.22237 a 18.992001,18.992001 0 0 1 -3.2873847,4.37304"
         sodipodi:end="0.78914662"
         sodipodi:start="0.50007963"
         sodipodi:ry="18.992001"
         sodipodi:rx="18.992001"
         sodipodi:cy="-125.32895"
         sodipodi:cx="-7.0036211"
         sodipodi:type="arc"
         id="path815-9-9"
         style="opacity:1;fill:none;fill-opacity:1;stroke:#bc1207;stroke-width:0.67799997;stroke-miterlimit:4;stroke-dasharray:none;stroke-opacity:1;marker-start:url(#StopL-5-7);marker-end:url(#StopL-5-7)" />
    </g>
    <g
       id="g15323"
       transform="translate(-7.5595352,11.90625)">
      <path
         sodipodi:open="true"
         d="m 196.78424,25.15598 a 18.992001,18.992001 0 0 1 -7.08864,14.696883 18.992001,18.992001 0 0 1 -15.87488,3.772976"
         sodipodi:end="1.7814811"
         sodipodi:start="0.0053806313"
         sodipodi:ry="18.992001"
         sodipodi:rx="18.992001"
         sodipodi:cy="25.053791"
         sodipodi:cx="177.79251"
         sodipodi:type="arc"
         id="path815-9-1"
         style="opacity:1;fill:none;fill-opacity:1;stroke:#00ff00;stroke-width:0.67799997;stroke-miterlimit:4;stroke-dasharray:none;stroke-opacity:1;marker-start:url(#StopL-5-2);marker-end:url(#StopL-5-2)" />
      <circle
         r="23.246"
         cy="24.668156"
         cx="177.45982"
         id="path3621-1-8"
         style="opacity:1;fill:none;fill-opacity:1;stroke:#000000;stroke-width:0.36500001;stroke-miterlimit:4;stroke-dasharray:none;stroke-opacity:1" />
      <path
         transform="scale(-1)"
         sodipodi:open="true"
         d="m -159.45125,-18.898664 a 18.992001,18.992001 0 0 1 -20.64329,13.2894028 18.992001,18.992001 0 0 1 -16.5034,-18.1766718"
         sodipodi:end="3.1071999"
         sodipodi:start="0.29602351"
         sodipodi:ry="18.992001"
         sodipodi:rx="18.992001"
         sodipodi:cy="-24.438992"
         sodipodi:cx="-177.61717"
         sodipodi:type="arc"
         id="path815-7-2-7"
         style="opacity:1;fill:none;fill-opacity:1;stroke:#fb6e12;stroke-width:0.67799997;stroke-miterlimit:4;stroke-dasharray:none;stroke-opacity:1;marker-start:url(#StopL-3-5-0);marker-end:url(#StopL-3-5-0)" />
      <path
         transform="rotate(103.29841)"
         sodipodi:open="true"
         d="m 2.5111539,-177.91243 a 18.992001,18.992001 0 0 1 -5.7929645,13.5539 18.992001,18.992001 0 0 1 -13.7432894,5.3281"
         sodipodi:end="1.5994717"
         sodipodi:start="0.0053806313"
         sodipodi:ry="18.992001"
         sodipodi:rx="18.992001"
         sodipodi:cy="-178.01462"
         sodipodi:cx="-16.480572"
         sodipodi:type="arc"
         id="path815-9-9-9"
         style="opacity:1;fill:none;fill-opacity:1;stroke:#bc1207;stroke-width:0.67799997;stroke-miterlimit:4;stroke-dasharray:none;stroke-opacity:1;marker-start:url(#StopL-5-7-3);marker-end:url(#StopL-5-7-3)" />
    </g>
    <path
       style="fill:none;stroke:#000000;stroke-width:0.765;stroke-linecap:butt;stroke-linejoin:miter;stroke-miterlimit:3.4000001;stroke-dasharray:none;stroke-opacity:1;marker-end:url(#Arrow1Mend)"
       d="M 34.288355,71.303257 H 180.48478"
       id="path14926"
       inkscape:connector-curvature="0" />
    <text
       xml:space="preserve"
       style="font-style:normal;font-weight:normal;font-size:10.58333302px;line-height:1.25;font-family:sans-serif;letter-spacing:0px;word-spacing:0px;fill:#000000;fill-opacity:1;stroke:none;stroke-width:0.26458332"
       x="97.654762"
       y="78.640793"
       id="text15210"><tspan
         sodipodi:role="line"
         id="tspan15208"
         x="97.654762"
         y="78.640793"
         style="font-style:normal;font-variant:normal;font-weight:normal;font-stretch:normal;font-size:7.05555534px;font-family:'TeX Gyre Adventor';-inkscape-font-specification:'TeX Gyre Adventor';stroke-width:0.26458332">Temps</tspan></text>
    <g
       id="g7172">
      <path
         sodipodi:nodetypes="cc"
         inkscape:connector-curvature="0"
         id="path1120"
         d="m 64.356467,54.771599 c 3.883039,6.118729 19.594585,5.403601 24.71684,0.281346"
         style="fill:none;stroke:#4e4e4e;stroke-width:0.265;stroke-linecap:butt;stroke-linejoin:miter;stroke-opacity:1;stroke-miterlimit:4;stroke-dasharray:none;marker-end:url(#Arrow2Lend)" />
      <text
         id="text15210-8"
         y="62.90921"
         x="60.795265"
         style="font-style:normal;font-weight:normal;font-size:10.58333302px;line-height:1.25;font-family:sans-serif;letter-spacing:0px;word-spacing:0px;fill:#4e4e4e;fill-opacity:1;stroke:none;stroke-width:0.26458332"
         xml:space="preserve"><tspan
           style="font-style:italic;font-variant:normal;font-weight:normal;font-stretch:normal;font-size:3.88055563px;font-family:'TeX Gyre Adventor';-inkscape-font-specification:'TeX Gyre Adventor Italic';fill:#4e4e4e;fill-opacity:1;stroke-width:0.26458332"
           y="62.90921"
           x="60.795265"
           id="tspan15208-3"
           sodipodi:role="line">Ajout d'un nœud</tspan></text>
    </g>
    <g
       id="g7509"
       transform="translate(0,-0.28134599)">
      <path
         sodipodi:nodetypes="cc"
         inkscape:connector-curvature="0"
         id="path1120-8"
         d="m 127.69375,55.052945 c 3.88304,6.118729 19.59459,5.403601 24.71685,0.281346"
         style="fill:none;stroke:#4e4e4e;stroke-width:0.26499999;stroke-linecap:butt;stroke-linejoin:miter;stroke-miterlimit:4;stroke-dasharray:none;stroke-opacity:1;marker-end:url(#Arrow2Lend-5)" />
      <text
         id="text15210-8-8"
         y="62.961597"
         x="127.44664"
         style="font-style:normal;font-weight:normal;font-size:10.58333302px;line-height:1.25;font-family:sans-serif;letter-spacing:0px;word-spacing:0px;fill:#4e4e4e;fill-opacity:1;stroke:none;stroke-width:0.26458332"
         xml:space="preserve"><tspan
           style="font-style:italic;font-variant:normal;font-weight:normal;font-stretch:normal;font-size:3.88055563px;font-family:'TeX Gyre Adventor';-inkscape-font-specification:'TeX Gyre Adventor Italic';fill:#4e4e4e;fill-opacity:1;stroke-width:0.26458332"
           y="62.961597"
           x="127.44664"
           id="tspan15208-3-9"
           sodipodi:role="line">Re-répartition</tspan></text>
    </g>
  </g>
</svg>
