<?xml version="1.0" encoding="UTF-8" standalone="no"?>
<!-- Created with Inkscape (http://www.inkscape.org/) -->

<svg
   xmlns:dc="http://purl.org/dc/elements/1.1/"
   xmlns:cc="http://creativecommons.org/ns#"
   xmlns:rdf="http://www.w3.org/1999/02/22-rdf-syntax-ns#"
   xmlns:svg="http://www.w3.org/2000/svg"
   xmlns="http://www.w3.org/2000/svg"
   xmlns:xlink="http://www.w3.org/1999/xlink"
   xmlns:sodipodi="http://sodipodi.sourceforge.net/DTD/sodipodi-0.dtd"
   xmlns:inkscape="http://www.inkscape.org/namespaces/inkscape"
   width="43.568001mm"
   height="24.843016mm"
   viewBox="0 0 43.568001 24.843016"
   version="1.1"
   id="svg8"
   inkscape:version="0.92.3 (2405546, 2018-03-11)"
   sodipodi:docname="pavageCoord.svg">
  <defs
     id="defs2">
    <pattern
       inkscape:collect="always"
       xlink:href="#pattern3327"
       id="pattern3342"
       patternTransform="matrix(0.26458333,0,0,0.26458333,18.211636,21.819204)" />
    <pattern
       inkscape:collect="always"
       xlink:href="#pattern3327"
       id="pattern3335"
       patternTransform="matrix(0.14549922,0,0,0.14549922,-5.7025993,4.4493141)" />
    <pattern
       patternUnits="userSpaceOnUse"
       width="13.514691"
       height="11.383928"
       patternTransform="matrix(0.26458333,0,0,0.26458333,18.29641,21.819204)"
       id="pattern3262">
      <g
         id="g3260"
         transform="matrix(3.7795276,0,0,3.7795276,-69.151784,-82.466284)">
        <rect
           style="opacity:1;fill:#e068d8;fill-opacity:0.96078431;fill-rule:nonzero;stroke:none;stroke-width:0.07710996;stroke-linecap:square;stroke-miterlimit:4;stroke-dasharray:none;stroke-opacity:1;paint-order:markers fill stroke"
           id="rect3211"
           width="0.25985864"
           height="3.0119977"
           x="18.29641"
           y="21.819204"
           rx="6.5525585e-39"
           ry="1.1020213e-38" />
        <rect
           style="opacity:1;fill:#e068d8;fill-opacity:0.96078431;fill-rule:nonzero;stroke:none;stroke-width:0.08219949;stroke-linecap:square;stroke-miterlimit:4;stroke-dasharray:none;stroke-opacity:1;paint-order:markers fill stroke"
           id="rect3211-3"
           width="0.2952939"
           height="3.0119977"
           x="18.93833"
           y="21.819204"
           rx="7.4460895e-39"
           ry="1.1020213e-38" />
        <rect
           style="opacity:1;fill:#e068d8;fill-opacity:0.96078431;fill-rule:nonzero;stroke:none;stroke-width:0.07710996;stroke-linecap:square;stroke-miterlimit:4;stroke-dasharray:none;stroke-opacity:1;paint-order:markers fill stroke"
           id="rect3211-6"
           width="0.25985864"
           height="3.0119977"
           x="19.615685"
           y="21.819204"
           rx="6.5525585e-39"
           ry="1.1020213e-38" />
        <rect
           style="opacity:1;fill:#e068d8;fill-opacity:0.96078431;fill-rule:nonzero;stroke:none;stroke-width:0.08219949;stroke-linecap:square;stroke-miterlimit:4;stroke-dasharray:none;stroke-opacity:1;paint-order:markers fill stroke"
           id="rect3211-3-7"
           width="0.2952939"
           height="3.0119977"
           x="20.257603"
           y="21.819204"
           rx="7.4460895e-39"
           ry="1.1020213e-38" />
        <rect
           style="opacity:1;fill:#e068d8;fill-opacity:0.96078431;fill-rule:nonzero;stroke:none;stroke-width:0.07710996;stroke-linecap:square;stroke-miterlimit:4;stroke-dasharray:none;stroke-opacity:1;paint-order:markers fill stroke"
           id="rect3211-5"
           width="0.25985864"
           height="3.0119977"
           x="20.934956"
           y="21.819204"
           rx="6.5525585e-39"
           ry="1.1020213e-38" />
        <rect
           style="opacity:1;fill:#e068d8;fill-opacity:0.96078431;fill-rule:nonzero;stroke:none;stroke-width:0.08219949;stroke-linecap:square;stroke-miterlimit:4;stroke-dasharray:none;stroke-opacity:1;paint-order:markers fill stroke"
           id="rect3211-3-3"
           width="0.2952939"
           height="3.0119977"
           x="21.576878"
           y="21.819204"
           rx="7.4460895e-39"
           ry="1.1020213e-38" />
      </g>
    </pattern>
    <pattern
       patternUnits="userSpaceOnUse"
       width="3.5324794"
       height="11.383928"
       patternTransform="matrix(0.26458333,0,0,0.26458333,18.29641,21.819204)"
       id="pattern3310">
      <rect
         style="opacity:1;fill:#e068d8;fill-opacity:0.96078431;fill-rule:nonzero;stroke:none;stroke-width:0.33297381;stroke-linecap:square;stroke-miterlimit:4;stroke-dasharray:none;stroke-opacity:1;paint-order:markers fill stroke"
         id="rect3279"
         width="1.2820319"
         height="11.383928"
         x="0"
         y="0"
         rx="3.2327535e-38"
         ry="4.1651201e-38" />
      <rect
         style="opacity:1;fill:#e068d8;fill-opacity:0.96078431;fill-rule:nonzero;stroke:none;stroke-width:0.33297384;stroke-linecap:square;stroke-miterlimit:4;stroke-dasharray:none;stroke-opacity:1;paint-order:markers fill stroke"
         id="rect3279-5"
         width="1.2820319"
         height="11.383928"
         x="1.7662396"
         y="0"
         rx="3.2327535e-38"
         ry="4.1651201e-38" />
      <rect
         y="0"
         x="3.0482736"
         height="11.383926"
         width="0.48420584"
         id="rect3308"
         style="opacity:1;fill:#000000;fill-opacity:0;fill-rule:nonzero;stroke:none;stroke-width:0.37795275;stroke-linecap:square;stroke-miterlimit:4;stroke-dasharray:none;stroke-opacity:1;paint-order:markers fill stroke" />
    </pattern>
    <pattern
       patternUnits="userSpaceOnUse"
       width="4.500891"
       height="11.383928"
       patternTransform="matrix(0.26458333,0,0,0.26458333,18.29641,21.819204)"
       id="pattern3327">
      <rect
         id="rect3315"
         y="0"
         x="0"
         height="11.383928"
         width="3.5324793"
         style="fill:none;stroke:none;stroke-width:3.77952766" />
      <rect
         style="opacity:1;fill:#e068d8;fill-opacity:0.96078431;fill-rule:nonzero;stroke:none;stroke-width:0.33297381;stroke-linecap:square;stroke-miterlimit:4;stroke-dasharray:none;stroke-opacity:1;paint-order:markers fill stroke"
         id="rect3321"
         width="1.2820319"
         height="11.383928"
         x="0"
         y="0"
         rx="3.2327535e-38"
         ry="4.1651201e-38" />
      <rect
         style="opacity:1;fill:#e068d8;fill-opacity:0.96078431;fill-rule:nonzero;stroke:none;stroke-width:0.33297381;stroke-linecap:square;stroke-miterlimit:4;stroke-dasharray:none;stroke-opacity:1;paint-order:markers fill stroke"
         id="rect3323"
         width="1.2820319"
         height="11.383928"
         x="2.2504456"
         y="0"
         rx="3.2327535e-38"
         ry="4.1651201e-38" />
      <rect
         y="0"
         x="3.5324793"
         height="11.383926"
         width="0.96841168"
         id="rect3325"
         style="opacity:1;fill:#000000;fill-opacity:0;fill-rule:nonzero;stroke:none;stroke-width:0.37795275;stroke-linecap:square;stroke-miterlimit:4;stroke-dasharray:none;stroke-opacity:1;paint-order:markers fill stroke" />
    </pattern>
  </defs>
  <sodipodi:namedview
     id="base"
     pagecolor="#ffffff"
     bordercolor="#666666"
     borderopacity="1.0"
     inkscape:pageopacity="0.0"
     inkscape:pageshadow="2"
     inkscape:zoom="5.6568543"
     inkscape:cx="82.684122"
     inkscape:cy="35.375638"
     inkscape:document-units="mm"
     inkscape:current-layer="layer3"
     showgrid="false"
     inkscape:window-width="1920"
     inkscape:window-height="1053"
     inkscape:window-x="0"
     inkscape:window-y="27"
     inkscape:window-maximized="1" />
  <metadata
     id="metadata5">
    <rdf:RDF>
      <cc:Work
         rdf:about="">
        <dc:format>image/svg+xml</dc:format>
        <dc:type
           rdf:resource="http://purl.org/dc/dcmitype/StillImage" />
        <dc:title></dc:title>
      </cc:Work>
    </rdf:RDF>
  </metadata>
  <g
     inkscape:groupmode="layer"
     id="layer2"
     inkscape:label="back">
    <rect
       style="opacity:1;fill:url(#pattern3342);fill-opacity:1;fill-rule:nonzero;stroke:none;stroke-width:0.1;stroke-linecap:square;stroke-miterlimit:4;stroke-dasharray:none;stroke-opacity:1;paint-order:markers fill stroke"
       id="rect3338"
       width="10.824416"
       height="10.791007"
       x="10.82741"
       y="7.0091343" />
  </g>
  <g
     inkscape:label="Layer 1"
     inkscape:groupmode="layer"
     id="layer1"
     transform="translate(-80.871669,-72.933258)">
    <path
       d="M 121.26467,97.776273 V 72.933258 m -3.70416,24.843015 V 72.933258 m -3.70417,24.843015 V 72.933258 m -3.70417,24.843015 V 72.933258 m -3.70416,24.843015 V 72.933258 m -3.70417,24.843015 V 72.933258 M 99.039666,97.776273 V 72.933258 m -3.70416,24.843015 V 72.933258 m -3.70417,24.843015 V 72.933258 m -3.70417,24.843015 V 72.933258 m -3.70416,24.843015 V 72.933258 M 124.43967,94.601277 H 80.871669 M 124.43967,90.89711 H 80.871669 M 124.43967,87.192943 H 80.871669 M 124.43967,83.488777 H 80.871669 M 124.43967,79.78461 H 80.871669 M 124.43967,76.080445 H 80.871669"
       style="fill:none;stroke:#000000;stroke-width:0.26458299px"
       id="path1405"
       inkscape:connector-curvature="0"
       sodipodi:nodetypes="cccccccccccccccccccccccccccccccccc" />
  </g>
  <g
     inkscape:groupmode="layer"
     id="layer3"
     inkscape:label="color">
    <path
       style="opacity:1;fill:#0d68d8;fill-opacity:1;stroke:#000000;stroke-width:0.04772374;stroke-linecap:square;stroke-miterlimit:4;stroke-dasharray:none;stroke-opacity:1;paint-order:markers fill stroke"
       d="M 55.25877,18.915072 V 12.47535 h 6.439723 6.439722 v 6.439722 6.439723 H 61.698493 55.25877 Z"
       id="path1419"
       inkscape:connector-curvature="0"
       transform="scale(0.26458333)" />
    <path
       style="opacity:1;fill:#0d68d8;fill-opacity:1;stroke:#000000;stroke-width:0.04772374;stroke-linecap:square;stroke-miterlimit:4;stroke-dasharray:none;stroke-opacity:1;paint-order:markers fill stroke"
       d="m 41.242904,32.930939 v -6.439723 h 6.439722 6.439722 v 6.439723 6.439722 h -6.439722 -6.439722 z"
       id="path1421"
       inkscape:connector-curvature="0"
       transform="scale(0.26458333)" />
    <path
       style="opacity:1;fill:#0d68d8;fill-opacity:1;stroke:#000000;stroke-width:0.04772374;stroke-linecap:square;stroke-miterlimit:4;stroke-dasharray:none;stroke-opacity:1;paint-order:markers fill stroke"
       d="m 27.227037,46.946805 v -6.439722 h 6.439722 6.439723 v 6.439722 6.439723 h -6.439723 -6.439722 z"
       id="path1423"
       inkscape:connector-curvature="0"
       transform="scale(0.26458333)" />
    <path
       style="opacity:1;fill:#0d68d8;fill-opacity:1;stroke:#000000;stroke-width:0.04772374;stroke-linecap:square;stroke-miterlimit:4;stroke-dasharray:none;stroke-opacity:1;paint-order:markers fill stroke"
       d="M 41.242904,60.836403 V 54.39668 h 6.439722 6.439722 v 6.439723 6.439722 h -6.439722 -6.439722 z"
       id="path1425"
       inkscape:connector-curvature="0"
       transform="scale(0.26458333)" />
    <path
       style="opacity:1;fill:#0d68d8;fill-opacity:1;stroke:#000000;stroke-width:0.04772374;stroke-linecap:square;stroke-miterlimit:4;stroke-dasharray:none;stroke-opacity:1;paint-order:markers fill stroke"
       d="m 55.25877,74.852269 v -6.439722 h 6.439723 6.439722 v 6.439722 6.439723 H 61.698493 55.25877 Z"
       id="path1427"
       inkscape:connector-curvature="0"
       transform="scale(0.26458333)" />
    <path
       style="opacity:1;fill:#0d68d8;fill-opacity:1;stroke:#000000;stroke-width:0.04772374;stroke-linecap:square;stroke-miterlimit:4;stroke-dasharray:none;stroke-opacity:1;paint-order:markers fill stroke"
       d="M 69.274637,60.836403 V 54.39668 h 6.439722 6.439723 v 6.439723 6.439722 h -6.439723 -6.439722 z"
       id="path1429"
       inkscape:connector-curvature="0"
       transform="scale(0.26458333)" />
    <path
       style="opacity:1;fill:#0d68d8;fill-opacity:1;stroke:#000000;stroke-width:0.04772374;stroke-linecap:square;stroke-miterlimit:4;stroke-dasharray:none;stroke-opacity:1;paint-order:markers fill stroke"
       d="m 83.164234,46.946805 v -6.439722 h 6.502857 6.502857 v 6.439722 6.439723 h -6.502857 -6.502857 z"
       id="path1431"
       inkscape:connector-curvature="0"
       transform="scale(0.26458333)" />
    <path
       style="opacity:1;fill:#0d68d8;fill-opacity:1;stroke:#000000;stroke-width:0.04772374;stroke-linecap:square;stroke-miterlimit:4;stroke-dasharray:none;stroke-opacity:1;paint-order:markers fill stroke"
       d="m 69.274637,32.930939 v -6.439723 h 6.439722 6.439723 v 6.439723 6.439722 h -6.439723 -6.439722 z"
       id="path1433"
       inkscape:connector-curvature="0"
       transform="scale(0.26458333)" />
    <rect
       style="fill:none;stroke:none"
       width="3.5757618"
       height="3.0119977"
       x="18.284597"
       y="25.575342"
       id="rect3271" />
    <g
       transform="translate(-17.411057,8.6672156)"
       id="g3291">
      <rect
         style="fill:url(#pattern3327);stroke:none"
         width="1.1908607"
         height="3.0119977"
         x="18.29641"
         y="21.819204"
         id="rect3333" />
    </g>
    <circle
       style="opacity:1;fill:#000000;fill-opacity:1;fill-rule:nonzero;stroke:none;stroke-width:0.07527667;stroke-linecap:square;stroke-miterlimit:4;stroke-dasharray:none;stroke-opacity:1;paint-order:markers fill stroke"
       id="path3344"
       cx="16.873207"
       cy="11.955094"
       r="0.67644835" />
  </g>
</svg>
